('E:/Program Files/Python/Python37/Lib/site-packages/pygame/',
 'pygame',
 [],
 'DATA',
 [('pygame\\base.cp37-win32.pyd',
   'E:/Program '
   'Files/Python/Python37/Lib/site-packages/pygame/base.cp37-win32.pyd',
   'DATA'),
  ('pygame\\bufferproxy.cp37-win32.pyd',
   'E:/Program '
   'Files/Python/Python37/Lib/site-packages/pygame/bufferproxy.cp37-win32.pyd',
   'DATA'),
  ('pygame\\camera.py',
   'E:/Program Files/Python/Python37/Lib/site-packages/pygame/camera.py',
   'DATA'),
  ('pygame\\cdrom.cp37-win32.pyd',
   'E:/Program '
   'Files/Python/Python37/Lib/site-packages/pygame/cdrom.cp37-win32.pyd',
   'DATA'),
  ('pygame\\color.cp37-win32.pyd',
   'E:/Program '
   'Files/Python/Python37/Lib/site-packages/pygame/color.cp37-win32.pyd',
   'DATA'),
  ('pygame\\colordict.py',
   'E:/Program Files/Python/Python37/Lib/site-packages/pygame/colordict.py',
   'DATA'),
  ('pygame\\colordict.pyo',
   'E:/Program Files/Python/Python37/Lib/site-packages/pygame/colordict.pyo',
   'DATA'),
  ('pygame\\compat.py',
   'E:/Program Files/Python/Python37/Lib/site-packages/pygame/compat.py',
   'DATA'),
  ('pygame\\compat.pyo',
   'E:/Program Files/Python/Python37/Lib/site-packages/pygame/compat.pyo',
   'DATA'),
  ('pygame\\constants.cp37-win32.pyd',
   'E:/Program '
   'Files/Python/Python37/Lib/site-packages/pygame/constants.cp37-win32.pyd',
   'DATA'),
  ('pygame\\cursors.py',
   'E:/Program Files/Python/Python37/Lib/site-packages/pygame/cursors.py',
   'DATA'),
  ('pygame\\cursors.pyo',
   'E:/Program Files/Python/Python37/Lib/site-packages/pygame/cursors.pyo',
   'DATA'),
  ('pygame\\display.cp37-win32.pyd',
   'E:/Program '
   'Files/Python/Python37/Lib/site-packages/pygame/display.cp37-win32.pyd',
   'DATA'),
  ('pygame\\draw.cp37-win32.pyd',
   'E:/Program '
   'Files/Python/Python37/Lib/site-packages/pygame/draw.cp37-win32.pyd',
   'DATA'),
  ('pygame\\draw_py.py',
   'E:/Program Files/Python/Python37/Lib/site-packages/pygame/draw_py.py',
   'DATA'),
  ('pygame\\event.cp37-win32.pyd',
   'E:/Program '
   'Files/Python/Python37/Lib/site-packages/pygame/event.cp37-win32.pyd',
   'DATA'),
  ('pygame\\fastevent.cp37-win32.pyd',
   'E:/Program '
   'Files/Python/Python37/Lib/site-packages/pygame/fastevent.cp37-win32.pyd',
   'DATA'),
  ('pygame\\font.cp37-win32.pyd',
   'E:/Program '
   'Files/Python/Python37/Lib/site-packages/pygame/font.cp37-win32.pyd',
   'DATA'),
  ('pygame\\freesansbold.ttf',
   'E:/Program Files/Python/Python37/Lib/site-packages/pygame/freesansbold.ttf',
   'DATA'),
  ('pygame\\freetype.py',
   'E:/Program Files/Python/Python37/Lib/site-packages/pygame/freetype.py',
   'DATA'),
  ('pygame\\ftfont.py',
   'E:/Program Files/Python/Python37/Lib/site-packages/pygame/ftfont.py',
   'DATA'),
  ('pygame\\ftfont.pyo',
   'E:/Program Files/Python/Python37/Lib/site-packages/pygame/ftfont.pyo',
   'DATA'),
  ('pygame\\gfxdraw.cp37-win32.pyd',
   'E:/Program '
   'Files/Python/Python37/Lib/site-packages/pygame/gfxdraw.cp37-win32.pyd',
   'DATA'),
  ('pygame\\image.cp37-win32.pyd',
   'E:/Program '
   'Files/Python/Python37/Lib/site-packages/pygame/image.cp37-win32.pyd',
   'DATA'),
  ('pygame\\imageext.cp37-win32.pyd',
   'E:/Program '
   'Files/Python/Python37/Lib/site-packages/pygame/imageext.cp37-win32.pyd',
   'DATA'),
  ('pygame\\joystick.cp37-win32.pyd',
   'E:/Program '
   'Files/Python/Python37/Lib/site-packages/pygame/joystick.cp37-win32.pyd',
   'DATA'),
  ('pygame\\key.cp37-win32.pyd',
   'E:/Program '
   'Files/Python/Python37/Lib/site-packages/pygame/key.cp37-win32.pyd',
   'DATA'),
  ('pygame\\libfreetype-6.dll',
   'E:/Program '
   'Files/Python/Python37/Lib/site-packages/pygame/libfreetype-6.dll',
   'DATA'),
  ('pygame\\libgcc_s_sjlj-1.dll',
   'E:/Program '
   'Files/Python/Python37/Lib/site-packages/pygame/libgcc_s_sjlj-1.dll',
   'DATA'),
  ('pygame\\libjpeg-8.dll',
   'E:/Program Files/Python/Python37/Lib/site-packages/pygame/libjpeg-8.dll',
   'DATA'),
  ('pygame\\libmpg123-0.dll',
   'E:/Program Files/Python/Python37/Lib/site-packages/pygame/libmpg123-0.dll',
   'DATA'),
  ('pygame\\libogg-0.dll',
   'E:/Program Files/Python/Python37/Lib/site-packages/pygame/libogg-0.dll',
   'DATA'),
  ('pygame\\libpng16-16.dll',
   'E:/Program Files/Python/Python37/Lib/site-packages/pygame/libpng16-16.dll',
   'DATA'),
  ('pygame\\libstdc++-6.dll',
   'E:/Program Files/Python/Python37/Lib/site-packages/pygame/libstdc++-6.dll',
   'DATA'),
  ('pygame\\libtiff-5.dll',
   'E:/Program Files/Python/Python37/Lib/site-packages/pygame/libtiff-5.dll',
   'DATA'),
  ('pygame\\libvorbis-0.dll',
   'E:/Program Files/Python/Python37/Lib/site-packages/pygame/libvorbis-0.dll',
   'DATA'),
  ('pygame\\libvorbisfile-3.dll',
   'E:/Program '
   'Files/Python/Python37/Lib/site-packages/pygame/libvorbisfile-3.dll',
   'DATA'),
  ('pygame\\libwebp-5.dll',
   'E:/Program Files/Python/Python37/Lib/site-packages/pygame/libwebp-5.dll',
   'DATA'),
  ('pygame\\locals.py',
   'E:/Program Files/Python/Python37/Lib/site-packages/pygame/locals.py',
   'DATA'),
  ('pygame\\macosx.py',
   'E:/Program Files/Python/Python37/Lib/site-packages/pygame/macosx.py',
   'DATA'),
  ('pygame\\macosx.pyo',
   'E:/Program Files/Python/Python37/Lib/site-packages/pygame/macosx.pyo',
   'DATA'),
  ('pygame\\mask.cp37-win32.pyd',
   'E:/Program '
   'Files/Python/Python37/Lib/site-packages/pygame/mask.cp37-win32.pyd',
   'DATA'),
  ('pygame\\math.cp37-win32.pyd',
   'E:/Program '
   'Files/Python/Python37/Lib/site-packages/pygame/math.cp37-win32.pyd',
   'DATA'),
  ('pygame\\midi.py',
   'E:/Program Files/Python/Python37/Lib/site-packages/pygame/midi.py',
   'DATA'),
  ('pygame\\mixer.cp37-win32.pyd',
   'E:/Program '
   'Files/Python/Python37/Lib/site-packages/pygame/mixer.cp37-win32.pyd',
   'DATA'),
  ('pygame\\mixer_music.cp37-win32.pyd',
   'E:/Program '
   'Files/Python/Python37/Lib/site-packages/pygame/mixer_music.cp37-win32.pyd',
   'DATA'),
  ('pygame\\mouse.cp37-win32.pyd',
   'E:/Program '
   'Files/Python/Python37/Lib/site-packages/pygame/mouse.cp37-win32.pyd',
   'DATA'),
  ('pygame\\newbuffer.cp37-win32.pyd',
   'E:/Program '
   'Files/Python/Python37/Lib/site-packages/pygame/newbuffer.cp37-win32.pyd',
   'DATA'),
  ('pygame\\overlay.cp37-win32.pyd',
   'E:/Program '
   'Files/Python/Python37/Lib/site-packages/pygame/overlay.cp37-win32.pyd',
   'DATA'),
  ('pygame\\pixelarray.cp37-win32.pyd',
   'E:/Program '
   'Files/Python/Python37/Lib/site-packages/pygame/pixelarray.cp37-win32.pyd',
   'DATA'),
  ('pygame\\pixelcopy.cp37-win32.pyd',
   'E:/Program '
   'Files/Python/Python37/Lib/site-packages/pygame/pixelcopy.cp37-win32.pyd',
   'DATA'),
  ('pygame\\pkgdata.py',
   'E:/Program Files/Python/Python37/Lib/site-packages/pygame/pkgdata.py',
   'DATA'),
  ('pygame\\pkgdata.pyo',
   'E:/Program Files/Python/Python37/Lib/site-packages/pygame/pkgdata.pyo',
   'DATA'),
  ('pygame\\portmidi.dll',
   'E:/Program Files/Python/Python37/Lib/site-packages/pygame/portmidi.dll',
   'DATA'),
  ('pygame\\pygame.ico',
   'E:/Program Files/Python/Python37/Lib/site-packages/pygame/pygame.ico',
   'DATA'),
  ('pygame\\pygame_icon.bmp',
   'E:/Program Files/Python/Python37/Lib/site-packages/pygame/pygame_icon.bmp',
   'DATA'),
  ('pygame\\pygame_icon.icns',
   'E:/Program Files/Python/Python37/Lib/site-packages/pygame/pygame_icon.icns',
   'DATA'),
  ('pygame\\pygame_icon.svg',
   'E:/Program Files/Python/Python37/Lib/site-packages/pygame/pygame_icon.svg',
   'DATA'),
  ('pygame\\pygame_icon.tiff',
   'E:/Program Files/Python/Python37/Lib/site-packages/pygame/pygame_icon.tiff',
   'DATA'),
  ('pygame\\pypm.cp37-win32.pyd',
   'E:/Program '
   'Files/Python/Python37/Lib/site-packages/pygame/pypm.cp37-win32.pyd',
   'DATA'),
  ('pygame\\rect.cp37-win32.pyd',
   'E:/Program '
   'Files/Python/Python37/Lib/site-packages/pygame/rect.cp37-win32.pyd',
   'DATA'),
  ('pygame\\rwobject.cp37-win32.pyd',
   'E:/Program '
   'Files/Python/Python37/Lib/site-packages/pygame/rwobject.cp37-win32.pyd',
   'DATA'),
  ('pygame\\scrap.cp37-win32.pyd',
   'E:/Program '
   'Files/Python/Python37/Lib/site-packages/pygame/scrap.cp37-win32.pyd',
   'DATA'),
  ('pygame\\SDL.dll',
   'E:/Program Files/Python/Python37/Lib/site-packages/pygame/SDL.dll',
   'DATA'),
  ('pygame\\SDL_image.dll',
   'E:/Program Files/Python/Python37/Lib/site-packages/pygame/SDL_image.dll',
   'DATA'),
  ('pygame\\SDL_mixer.dll',
   'E:/Program Files/Python/Python37/Lib/site-packages/pygame/SDL_mixer.dll',
   'DATA'),
  ('pygame\\SDL_ttf.dll',
   'E:/Program Files/Python/Python37/Lib/site-packages/pygame/SDL_ttf.dll',
   'DATA'),
  ('pygame\\sndarray.py',
   'E:/Program Files/Python/Python37/Lib/site-packages/pygame/sndarray.py',
   'DATA'),
  ('pygame\\sndarray.pyo',
   'E:/Program Files/Python/Python37/Lib/site-packages/pygame/sndarray.pyo',
   'DATA'),
  ('pygame\\sprite.py',
   'E:/Program Files/Python/Python37/Lib/site-packages/pygame/sprite.py',
   'DATA'),
  ('pygame\\sprite.pyo',
   'E:/Program Files/Python/Python37/Lib/site-packages/pygame/sprite.pyo',
   'DATA'),
  ('pygame\\surface.cp37-win32.pyd',
   'E:/Program '
   'Files/Python/Python37/Lib/site-packages/pygame/surface.cp37-win32.pyd',
   'DATA'),
  ('pygame\\surfarray.py',
   'E:/Program Files/Python/Python37/Lib/site-packages/pygame/surfarray.py',
   'DATA'),
  ('pygame\\surfarray.pyo',
   'E:/Program Files/Python/Python37/Lib/site-packages/pygame/surfarray.pyo',
   'DATA'),
  ('pygame\\surflock.cp37-win32.pyd',
   'E:/Program '
   'Files/Python/Python37/Lib/site-packages/pygame/surflock.cp37-win32.pyd',
   'DATA'),
  ('pygame\\sysfont.py',
   'E:/Program Files/Python/Python37/Lib/site-packages/pygame/sysfont.py',
   'DATA'),
  ('pygame\\sysfont.pyo',
   'E:/Program Files/Python/Python37/Lib/site-packages/pygame/sysfont.pyo',
   'DATA'),
  ('pygame\\time.cp37-win32.pyd',
   'E:/Program '
   'Files/Python/Python37/Lib/site-packages/pygame/time.cp37-win32.pyd',
   'DATA'),
  ('pygame\\transform.cp37-win32.pyd',
   'E:/Program '
   'Files/Python/Python37/Lib/site-packages/pygame/transform.cp37-win32.pyd',
   'DATA'),
  ('pygame\\version.py',
   'E:/Program Files/Python/Python37/Lib/site-packages/pygame/version.py',
   'DATA'),
  ('pygame\\version.pyo',
   'E:/Program Files/Python/Python37/Lib/site-packages/pygame/version.pyo',
   'DATA'),
  ('pygame\\zlib1.dll',
   'E:/Program Files/Python/Python37/Lib/site-packages/pygame/zlib1.dll',
   'DATA'),
  ('pygame\\_camera_opencv_highgui.py',
   'E:/Program '
   'Files/Python/Python37/Lib/site-packages/pygame/_camera_opencv_highgui.py',
   'DATA'),
  ('pygame\\_camera_vidcapture.py',
   'E:/Program '
   'Files/Python/Python37/Lib/site-packages/pygame/_camera_vidcapture.py',
   'DATA'),
  ('pygame\\_dummybackend.py',
   'E:/Program Files/Python/Python37/Lib/site-packages/pygame/_dummybackend.py',
   'DATA'),
  ('pygame\\_freetype.cp37-win32.pyd',
   'E:/Program '
   'Files/Python/Python37/Lib/site-packages/pygame/_freetype.cp37-win32.pyd',
   'DATA'),
  ('pygame\\_numpysndarray.py',
   'E:/Program '
   'Files/Python/Python37/Lib/site-packages/pygame/_numpysndarray.py',
   'DATA'),
  ('pygame\\_numpysndarray.pyo',
   'E:/Program '
   'Files/Python/Python37/Lib/site-packages/pygame/_numpysndarray.pyo',
   'DATA'),
  ('pygame\\_numpysurfarray.py',
   'E:/Program '
   'Files/Python/Python37/Lib/site-packages/pygame/_numpysurfarray.py',
   'DATA'),
  ('pygame\\_numpysurfarray.pyo',
   'E:/Program '
   'Files/Python/Python37/Lib/site-packages/pygame/_numpysurfarray.pyo',
   'DATA'),
  ('pygame\\__init__.py',
   'E:/Program Files/Python/Python37/Lib/site-packages/pygame/__init__.py',
   'DATA'),
  ('pygame\\__init__.pyo',
   'E:/Program Files/Python/Python37/Lib/site-packages/pygame/__init__.pyo',
   'DATA'),
  ('pygame\\__pycache__\\camera.cpython-37.pyc',
   'E:/Program '
   'Files/Python/Python37/Lib/site-packages/pygame/__pycache__\\camera.cpython-37.pyc',
   'DATA'),
  ('pygame\\__pycache__\\colordict.cpython-37.pyc',
   'E:/Program '
   'Files/Python/Python37/Lib/site-packages/pygame/__pycache__\\colordict.cpython-37.pyc',
   'DATA'),
  ('pygame\\__pycache__\\compat.cpython-37.pyc',
   'E:/Program '
   'Files/Python/Python37/Lib/site-packages/pygame/__pycache__\\compat.cpython-37.pyc',
   'DATA'),
  ('pygame\\__pycache__\\cursors.cpython-37.pyc',
   'E:/Program '
   'Files/Python/Python37/Lib/site-packages/pygame/__pycache__\\cursors.cpython-37.pyc',
   'DATA'),
  ('pygame\\__pycache__\\draw_py.cpython-37.pyc',
   'E:/Program '
   'Files/Python/Python37/Lib/site-packages/pygame/__pycache__\\draw_py.cpython-37.pyc',
   'DATA'),
  ('pygame\\__pycache__\\freetype.cpython-37.pyc',
   'E:/Program '
   'Files/Python/Python37/Lib/site-packages/pygame/__pycache__\\freetype.cpython-37.pyc',
   'DATA'),
  ('pygame\\__pycache__\\ftfont.cpython-37.pyc',
   'E:/Program '
   'Files/Python/Python37/Lib/site-packages/pygame/__pycache__\\ftfont.cpython-37.pyc',
   'DATA'),
  ('pygame\\__pycache__\\locals.cpython-37.pyc',
   'E:/Program '
   'Files/Python/Python37/Lib/site-packages/pygame/__pycache__\\locals.cpython-37.pyc',
   'DATA'),
  ('pygame\\__pycache__\\macosx.cpython-37.pyc',
   'E:/Program '
   'Files/Python/Python37/Lib/site-packages/pygame/__pycache__\\macosx.cpython-37.pyc',
   'DATA'),
  ('pygame\\__pycache__\\midi.cpython-37.pyc',
   'E:/Program '
   'Files/Python/Python37/Lib/site-packages/pygame/__pycache__\\midi.cpython-37.pyc',
   'DATA'),
  ('pygame\\__pycache__\\pkgdata.cpython-37.pyc',
   'E:/Program '
   'Files/Python/Python37/Lib/site-packages/pygame/__pycache__\\pkgdata.cpython-37.pyc',
   'DATA'),
  ('pygame\\__pycache__\\sndarray.cpython-37.pyc',
   'E:/Program '
   'Files/Python/Python37/Lib/site-packages/pygame/__pycache__\\sndarray.cpython-37.pyc',
   'DATA'),
  ('pygame\\__pycache__\\sprite.cpython-37.pyc',
   'E:/Program '
   'Files/Python/Python37/Lib/site-packages/pygame/__pycache__\\sprite.cpython-37.pyc',
   'DATA'),
  ('pygame\\__pycache__\\surfarray.cpython-37.pyc',
   'E:/Program '
   'Files/Python/Python37/Lib/site-packages/pygame/__pycache__\\surfarray.cpython-37.pyc',
   'DATA'),
  ('pygame\\__pycache__\\sysfont.cpython-37.pyc',
   'E:/Program '
   'Files/Python/Python37/Lib/site-packages/pygame/__pycache__\\sysfont.cpython-37.pyc',
   'DATA'),
  ('pygame\\__pycache__\\version.cpython-37.pyc',
   'E:/Program '
   'Files/Python/Python37/Lib/site-packages/pygame/__pycache__\\version.cpython-37.pyc',
   'DATA'),
  ('pygame\\__pycache__\\_camera_opencv_highgui.cpython-37.pyc',
   'E:/Program '
   'Files/Python/Python37/Lib/site-packages/pygame/__pycache__\\_camera_opencv_highgui.cpython-37.pyc',
   'DATA'),
  ('pygame\\__pycache__\\_camera_vidcapture.cpython-37.pyc',
   'E:/Program '
   'Files/Python/Python37/Lib/site-packages/pygame/__pycache__\\_camera_vidcapture.cpython-37.pyc',
   'DATA'),
  ('pygame\\__pycache__\\_dummybackend.cpython-37.pyc',
   'E:/Program '
   'Files/Python/Python37/Lib/site-packages/pygame/__pycache__\\_dummybackend.cpython-37.pyc',
   'DATA'),
  ('pygame\\__pycache__\\_numpysndarray.cpython-37.pyc',
   'E:/Program '
   'Files/Python/Python37/Lib/site-packages/pygame/__pycache__\\_numpysndarray.cpython-37.pyc',
   'DATA'),
  ('pygame\\__pycache__\\_numpysurfarray.cpython-37.pyc',
   'E:/Program '
   'Files/Python/Python37/Lib/site-packages/pygame/__pycache__\\_numpysurfarray.cpython-37.pyc',
   'DATA'),
  ('pygame\\__pycache__\\__init__.cpython-37.pyc',
   'E:/Program '
   'Files/Python/Python37/Lib/site-packages/pygame/__pycache__\\__init__.cpython-37.pyc',
   'DATA'),
  ('pygame\\threads\\Py25Queue.py',
   'E:/Program '
   'Files/Python/Python37/Lib/site-packages/pygame/threads\\Py25Queue.py',
   'DATA'),
  ('pygame\\threads\\__init__.py',
   'E:/Program '
   'Files/Python/Python37/Lib/site-packages/pygame/threads\\__init__.py',
   'DATA'),
  ('pygame\\threads\\__init__.pyo',
   'E:/Program '
   'Files/Python/Python37/Lib/site-packages/pygame/threads\\__init__.pyo',
   'DATA'),
  ('pygame\\threads\\__pycache__\\Py25Queue.cpython-37.pyc',
   'E:/Program '
   'Files/Python/Python37/Lib/site-packages/pygame/threads\\__pycache__\\Py25Queue.cpython-37.pyc',
   'DATA'),
  ('pygame\\threads\\__pycache__\\__init__.cpython-37.pyc',
   'E:/Program '
   'Files/Python/Python37/Lib/site-packages/pygame/threads\\__pycache__\\__init__.cpython-37.pyc',
   'DATA'),
  ('pygame\\tests\\base_test.py',
   'E:/Program '
   'Files/Python/Python37/Lib/site-packages/pygame/tests\\base_test.py',
   'DATA'),
  ('pygame\\tests\\blit_test.py',
   'E:/Program '
   'Files/Python/Python37/Lib/site-packages/pygame/tests\\blit_test.py',
   'DATA'),
  ('pygame\\tests\\bufferproxy_test.py',
   'E:/Program '
   'Files/Python/Python37/Lib/site-packages/pygame/tests\\bufferproxy_test.py',
   'DATA'),
  ('pygame\\tests\\camera_test.py',
   'E:/Program '
   'Files/Python/Python37/Lib/site-packages/pygame/tests\\camera_test.py',
   'DATA'),
  ('pygame\\tests\\cdrom_tags.py',
   'E:/Program '
   'Files/Python/Python37/Lib/site-packages/pygame/tests\\cdrom_tags.py',
   'DATA'),
  ('pygame\\tests\\cdrom_test.py',
   'E:/Program '
   'Files/Python/Python37/Lib/site-packages/pygame/tests\\cdrom_test.py',
   'DATA'),
  ('pygame\\tests\\color_test.py',
   'E:/Program '
   'Files/Python/Python37/Lib/site-packages/pygame/tests\\color_test.py',
   'DATA'),
  ('pygame\\tests\\compat_test.py',
   'E:/Program '
   'Files/Python/Python37/Lib/site-packages/pygame/tests\\compat_test.py',
   'DATA'),
  ('pygame\\tests\\constants_test.py',
   'E:/Program '
   'Files/Python/Python37/Lib/site-packages/pygame/tests\\constants_test.py',
   'DATA'),
  ('pygame\\tests\\cursors_test.py',
   'E:/Program '
   'Files/Python/Python37/Lib/site-packages/pygame/tests\\cursors_test.py',
   'DATA'),
  ('pygame\\tests\\display_test.py',
   'E:/Program '
   'Files/Python/Python37/Lib/site-packages/pygame/tests\\display_test.py',
   'DATA'),
  ('pygame\\tests\\draw_test.py',
   'E:/Program '
   'Files/Python/Python37/Lib/site-packages/pygame/tests\\draw_test.py',
   'DATA'),
  ('pygame\\tests\\event_test.py',
   'E:/Program '
   'Files/Python/Python37/Lib/site-packages/pygame/tests\\event_test.py',
   'DATA'),
  ('pygame\\tests\\fastevent_tags.py',
   'E:/Program '
   'Files/Python/Python37/Lib/site-packages/pygame/tests\\fastevent_tags.py',
   'DATA'),
  ('pygame\\tests\\fastevent_test.py',
   'E:/Program '
   'Files/Python/Python37/Lib/site-packages/pygame/tests\\fastevent_test.py',
   'DATA'),
  ('pygame\\tests\\font_tags.py',
   'E:/Program '
   'Files/Python/Python37/Lib/site-packages/pygame/tests\\font_tags.py',
   'DATA'),
  ('pygame\\tests\\font_test.py',
   'E:/Program '
   'Files/Python/Python37/Lib/site-packages/pygame/tests\\font_test.py',
   'DATA'),
  ('pygame\\tests\\freetype_tags.py',
   'E:/Program '
   'Files/Python/Python37/Lib/site-packages/pygame/tests\\freetype_tags.py',
   'DATA'),
  ('pygame\\tests\\freetype_test.py',
   'E:/Program '
   'Files/Python/Python37/Lib/site-packages/pygame/tests\\freetype_test.py',
   'DATA'),
  ('pygame\\tests\\ftfont_tags.py',
   'E:/Program '
   'Files/Python/Python37/Lib/site-packages/pygame/tests\\ftfont_tags.py',
   'DATA'),
  ('pygame\\tests\\ftfont_test.py',
   'E:/Program '
   'Files/Python/Python37/Lib/site-packages/pygame/tests\\ftfont_test.py',
   'DATA'),
  ('pygame\\tests\\gfxdraw_test.py',
   'E:/Program '
   'Files/Python/Python37/Lib/site-packages/pygame/tests\\gfxdraw_test.py',
   'DATA'),
  ('pygame\\tests\\imageext_tags.py',
   'E:/Program '
   'Files/Python/Python37/Lib/site-packages/pygame/tests\\imageext_tags.py',
   'DATA'),
  ('pygame\\tests\\imageext_test.py',
   'E:/Program '
   'Files/Python/Python37/Lib/site-packages/pygame/tests\\imageext_test.py',
   'DATA'),
  ('pygame\\tests\\image_tags.py',
   'E:/Program '
   'Files/Python/Python37/Lib/site-packages/pygame/tests\\image_tags.py',
   'DATA'),
  ('pygame\\tests\\image_test.py',
   'E:/Program '
   'Files/Python/Python37/Lib/site-packages/pygame/tests\\image_test.py',
   'DATA'),
  ('pygame\\tests\\image__save_gl_surface_test.py',
   'E:/Program '
   'Files/Python/Python37/Lib/site-packages/pygame/tests\\image__save_gl_surface_test.py',
   'DATA'),
  ('pygame\\tests\\joystick_test.py',
   'E:/Program '
   'Files/Python/Python37/Lib/site-packages/pygame/tests\\joystick_test.py',
   'DATA'),
  ('pygame\\tests\\key_test.py',
   'E:/Program '
   'Files/Python/Python37/Lib/site-packages/pygame/tests\\key_test.py',
   'DATA'),
  ('pygame\\tests\\mask_test.py',
   'E:/Program '
   'Files/Python/Python37/Lib/site-packages/pygame/tests\\mask_test.py',
   'DATA'),
  ('pygame\\tests\\math_test.py',
   'E:/Program '
   'Files/Python/Python37/Lib/site-packages/pygame/tests\\math_test.py',
   'DATA'),
  ('pygame\\tests\\midi_tags.py',
   'E:/Program '
   'Files/Python/Python37/Lib/site-packages/pygame/tests\\midi_tags.py',
   'DATA'),
  ('pygame\\tests\\midi_test.py',
   'E:/Program '
   'Files/Python/Python37/Lib/site-packages/pygame/tests\\midi_test.py',
   'DATA'),
  ('pygame\\tests\\mixer_music_tags.py',
   'E:/Program '
   'Files/Python/Python37/Lib/site-packages/pygame/tests\\mixer_music_tags.py',
   'DATA'),
  ('pygame\\tests\\mixer_music_test.py',
   'E:/Program '
   'Files/Python/Python37/Lib/site-packages/pygame/tests\\mixer_music_test.py',
   'DATA'),
  ('pygame\\tests\\mixer_tags.py',
   'E:/Program '
   'Files/Python/Python37/Lib/site-packages/pygame/tests\\mixer_tags.py',
   'DATA'),
  ('pygame\\tests\\mixer_test.py',
   'E:/Program '
   'Files/Python/Python37/Lib/site-packages/pygame/tests\\mixer_test.py',
   'DATA'),
  ('pygame\\tests\\mouse_test.py',
   'E:/Program '
   'Files/Python/Python37/Lib/site-packages/pygame/tests\\mouse_test.py',
   'DATA'),
  ('pygame\\tests\\overlay_tags.py',
   'E:/Program '
   'Files/Python/Python37/Lib/site-packages/pygame/tests\\overlay_tags.py',
   'DATA'),
  ('pygame\\tests\\overlay_test.py',
   'E:/Program '
   'Files/Python/Python37/Lib/site-packages/pygame/tests\\overlay_test.py',
   'DATA'),
  ('pygame\\tests\\pixelarray_test.py',
   'E:/Program '
   'Files/Python/Python37/Lib/site-packages/pygame/tests\\pixelarray_test.py',
   'DATA'),
  ('pygame\\tests\\pixelcopy_test.py',
   'E:/Program '
   'Files/Python/Python37/Lib/site-packages/pygame/tests\\pixelcopy_test.py',
   'DATA'),
  ('pygame\\tests\\rect_test.py',
   'E:/Program '
   'Files/Python/Python37/Lib/site-packages/pygame/tests\\rect_test.py',
   'DATA'),
  ('pygame\\tests\\rwobject_test.py',
   'E:/Program '
   'Files/Python/Python37/Lib/site-packages/pygame/tests\\rwobject_test.py',
   'DATA'),
  ('pygame\\tests\\scrap_tags.py',
   'E:/Program '
   'Files/Python/Python37/Lib/site-packages/pygame/tests\\scrap_tags.py',
   'DATA'),
  ('pygame\\tests\\scrap_test.py',
   'E:/Program '
   'Files/Python/Python37/Lib/site-packages/pygame/tests\\scrap_test.py',
   'DATA'),
  ('pygame\\tests\\sndarray_tags.py',
   'E:/Program '
   'Files/Python/Python37/Lib/site-packages/pygame/tests\\sndarray_tags.py',
   'DATA'),
  ('pygame\\tests\\sndarray_test.py',
   'E:/Program '
   'Files/Python/Python37/Lib/site-packages/pygame/tests\\sndarray_test.py',
   'DATA'),
  ('pygame\\tests\\sprite_test.py',
   'E:/Program '
   'Files/Python/Python37/Lib/site-packages/pygame/tests\\sprite_test.py',
   'DATA'),
  ('pygame\\tests\\surface_test.py',
   'E:/Program '
   'Files/Python/Python37/Lib/site-packages/pygame/tests\\surface_test.py',
   'DATA'),
  ('pygame\\tests\\surfarray_tags.py',
   'E:/Program '
   'Files/Python/Python37/Lib/site-packages/pygame/tests\\surfarray_tags.py',
   'DATA'),
  ('pygame\\tests\\surfarray_test.py',
   'E:/Program '
   'Files/Python/Python37/Lib/site-packages/pygame/tests\\surfarray_test.py',
   'DATA'),
  ('pygame\\tests\\surflock_test.py',
   'E:/Program '
   'Files/Python/Python37/Lib/site-packages/pygame/tests\\surflock_test.py',
   'DATA'),
  ('pygame\\tests\\sysfont_test.py',
   'E:/Program '
   'Files/Python/Python37/Lib/site-packages/pygame/tests\\sysfont_test.py',
   'DATA'),
  ('pygame\\tests\\test_test_.py',
   'E:/Program '
   'Files/Python/Python37/Lib/site-packages/pygame/tests\\test_test_.py',
   'DATA'),
  ('pygame\\tests\\threads_test.py',
   'E:/Program '
   'Files/Python/Python37/Lib/site-packages/pygame/tests\\threads_test.py',
   'DATA'),
  ('pygame\\tests\\time_test.py',
   'E:/Program '
   'Files/Python/Python37/Lib/site-packages/pygame/tests\\time_test.py',
   'DATA'),
  ('pygame\\tests\\touch_tags.py',
   'E:/Program '
   'Files/Python/Python37/Lib/site-packages/pygame/tests\\touch_tags.py',
   'DATA'),
  ('pygame\\tests\\touch_test.py',
   'E:/Program '
   'Files/Python/Python37/Lib/site-packages/pygame/tests\\touch_test.py',
   'DATA'),
  ('pygame\\tests\\transform_test.py',
   'E:/Program '
   'Files/Python/Python37/Lib/site-packages/pygame/tests\\transform_test.py',
   'DATA'),
  ('pygame\\tests\\version_test.py',
   'E:/Program '
   'Files/Python/Python37/Lib/site-packages/pygame/tests\\version_test.py',
   'DATA'),
  ('pygame\\tests\\__init__.py',
   'E:/Program '
   'Files/Python/Python37/Lib/site-packages/pygame/tests\\__init__.py',
   'DATA'),
  ('pygame\\tests\\__main__.py',
   'E:/Program '
   'Files/Python/Python37/Lib/site-packages/pygame/tests\\__main__.py',
   'DATA'),
  ('pygame\\tests\\__pycache__\\base_test.cpython-37.pyc',
   'E:/Program '
   'Files/Python/Python37/Lib/site-packages/pygame/tests\\__pycache__\\base_test.cpython-37.pyc',
   'DATA'),
  ('pygame\\tests\\__pycache__\\blit_test.cpython-37.pyc',
   'E:/Program '
   'Files/Python/Python37/Lib/site-packages/pygame/tests\\__pycache__\\blit_test.cpython-37.pyc',
   'DATA'),
  ('pygame\\tests\\__pycache__\\bufferproxy_test.cpython-37.pyc',
   'E:/Program '
   'Files/Python/Python37/Lib/site-packages/pygame/tests\\__pycache__\\bufferproxy_test.cpython-37.pyc',
   'DATA'),
  ('pygame\\tests\\__pycache__\\camera_test.cpython-37.pyc',
   'E:/Program '
   'Files/Python/Python37/Lib/site-packages/pygame/tests\\__pycache__\\camera_test.cpython-37.pyc',
   'DATA'),
  ('pygame\\tests\\__pycache__\\cdrom_tags.cpython-37.pyc',
   'E:/Program '
   'Files/Python/Python37/Lib/site-packages/pygame/tests\\__pycache__\\cdrom_tags.cpython-37.pyc',
   'DATA'),
  ('pygame\\tests\\__pycache__\\cdrom_test.cpython-37.pyc',
   'E:/Program '
   'Files/Python/Python37/Lib/site-packages/pygame/tests\\__pycache__\\cdrom_test.cpython-37.pyc',
   'DATA'),
  ('pygame\\tests\\__pycache__\\color_test.cpython-37.pyc',
   'E:/Program '
   'Files/Python/Python37/Lib/site-packages/pygame/tests\\__pycache__\\color_test.cpython-37.pyc',
   'DATA'),
  ('pygame\\tests\\__pycache__\\compat_test.cpython-37.pyc',
   'E:/Program '
   'Files/Python/Python37/Lib/site-packages/pygame/tests\\__pycache__\\compat_test.cpython-37.pyc',
   'DATA'),
  ('pygame\\tests\\__pycache__\\constants_test.cpython-37.pyc',
   'E:/Program '
   'Files/Python/Python37/Lib/site-packages/pygame/tests\\__pycache__\\constants_test.cpython-37.pyc',
   'DATA'),
  ('pygame\\tests\\__pycache__\\cursors_test.cpython-37.pyc',
   'E:/Program '
   'Files/Python/Python37/Lib/site-packages/pygame/tests\\__pycache__\\cursors_test.cpython-37.pyc',
   'DATA'),
  ('pygame\\tests\\__pycache__\\display_test.cpython-37.pyc',
   'E:/Program '
   'Files/Python/Python37/Lib/site-packages/pygame/tests\\__pycache__\\display_test.cpython-37.pyc',
   'DATA'),
  ('pygame\\tests\\__pycache__\\draw_test.cpython-37.pyc',
   'E:/Program '
   'Files/Python/Python37/Lib/site-packages/pygame/tests\\__pycache__\\draw_test.cpython-37.pyc',
   'DATA'),
  ('pygame\\tests\\__pycache__\\event_test.cpython-37.pyc',
   'E:/Program '
   'Files/Python/Python37/Lib/site-packages/pygame/tests\\__pycache__\\event_test.cpython-37.pyc',
   'DATA'),
  ('pygame\\tests\\__pycache__\\fastevent_tags.cpython-37.pyc',
   'E:/Program '
   'Files/Python/Python37/Lib/site-packages/pygame/tests\\__pycache__\\fastevent_tags.cpython-37.pyc',
   'DATA'),
  ('pygame\\tests\\__pycache__\\fastevent_test.cpython-37.pyc',
   'E:/Program '
   'Files/Python/Python37/Lib/site-packages/pygame/tests\\__pycache__\\fastevent_test.cpython-37.pyc',
   'DATA'),
  ('pygame\\tests\\__pycache__\\font_tags.cpython-37.pyc',
   'E:/Program '
   'Files/Python/Python37/Lib/site-packages/pygame/tests\\__pycache__\\font_tags.cpython-37.pyc',
   'DATA'),
  ('pygame\\tests\\__pycache__\\font_test.cpython-37.pyc',
   'E:/Program '
   'Files/Python/Python37/Lib/site-packages/pygame/tests\\__pycache__\\font_test.cpython-37.pyc',
   'DATA'),
  ('pygame\\tests\\__pycache__\\freetype_tags.cpython-37.pyc',
   'E:/Program '
   'Files/Python/Python37/Lib/site-packages/pygame/tests\\__pycache__\\freetype_tags.cpython-37.pyc',
   'DATA'),
  ('pygame\\tests\\__pycache__\\freetype_test.cpython-37.pyc',
   'E:/Program '
   'Files/Python/Python37/Lib/site-packages/pygame/tests\\__pycache__\\freetype_test.cpython-37.pyc',
   'DATA'),
  ('pygame\\tests\\__pycache__\\ftfont_tags.cpython-37.pyc',
   'E:/Program '
   'Files/Python/Python37/Lib/site-packages/pygame/tests\\__pycache__\\ftfont_tags.cpython-37.pyc',
   'DATA'),
  ('pygame\\tests\\__pycache__\\ftfont_test.cpython-37.pyc',
   'E:/Program '
   'Files/Python/Python37/Lib/site-packages/pygame/tests\\__pycache__\\ftfont_test.cpython-37.pyc',
   'DATA'),
  ('pygame\\tests\\__pycache__\\gfxdraw_test.cpython-37.pyc',
   'E:/Program '
   'Files/Python/Python37/Lib/site-packages/pygame/tests\\__pycache__\\gfxdraw_test.cpython-37.pyc',
   'DATA'),
  ('pygame\\tests\\__pycache__\\imageext_tags.cpython-37.pyc',
   'E:/Program '
   'Files/Python/Python37/Lib/site-packages/pygame/tests\\__pycache__\\imageext_tags.cpython-37.pyc',
   'DATA'),
  ('pygame\\tests\\__pycache__\\imageext_test.cpython-37.pyc',
   'E:/Program '
   'Files/Python/Python37/Lib/site-packages/pygame/tests\\__pycache__\\imageext_test.cpython-37.pyc',
   'DATA'),
  ('pygame\\tests\\__pycache__\\image_tags.cpython-37.pyc',
   'E:/Program '
   'Files/Python/Python37/Lib/site-packages/pygame/tests\\__pycache__\\image_tags.cpython-37.pyc',
   'DATA'),
  ('pygame\\tests\\__pycache__\\image_test.cpython-37.pyc',
   'E:/Program '
   'Files/Python/Python37/Lib/site-packages/pygame/tests\\__pycache__\\image_test.cpython-37.pyc',
   'DATA'),
  ('pygame\\tests\\__pycache__\\image__save_gl_surface_test.cpython-37.pyc',
   'E:/Program '
   'Files/Python/Python37/Lib/site-packages/pygame/tests\\__pycache__\\image__save_gl_surface_test.cpython-37.pyc',
   'DATA'),
  ('pygame\\tests\\__pycache__\\joystick_test.cpython-37.pyc',
   'E:/Program '
   'Files/Python/Python37/Lib/site-packages/pygame/tests\\__pycache__\\joystick_test.cpython-37.pyc',
   'DATA'),
  ('pygame\\tests\\__pycache__\\key_test.cpython-37.pyc',
   'E:/Program '
   'Files/Python/Python37/Lib/site-packages/pygame/tests\\__pycache__\\key_test.cpython-37.pyc',
   'DATA'),
  ('pygame\\tests\\__pycache__\\mask_test.cpython-37.pyc',
   'E:/Program '
   'Files/Python/Python37/Lib/site-packages/pygame/tests\\__pycache__\\mask_test.cpython-37.pyc',
   'DATA'),
  ('pygame\\tests\\__pycache__\\math_test.cpython-37.pyc',
   'E:/Program '
   'Files/Python/Python37/Lib/site-packages/pygame/tests\\__pycache__\\math_test.cpython-37.pyc',
   'DATA'),
  ('pygame\\tests\\__pycache__\\midi_tags.cpython-37.pyc',
   'E:/Program '
   'Files/Python/Python37/Lib/site-packages/pygame/tests\\__pycache__\\midi_tags.cpython-37.pyc',
   'DATA'),
  ('pygame\\tests\\__pycache__\\midi_test.cpython-37.pyc',
   'E:/Program '
   'Files/Python/Python37/Lib/site-packages/pygame/tests\\__pycache__\\midi_test.cpython-37.pyc',
   'DATA'),
  ('pygame\\tests\\__pycache__\\mixer_music_tags.cpython-37.pyc',
   'E:/Program '
   'Files/Python/Python37/Lib/site-packages/pygame/tests\\__pycache__\\mixer_music_tags.cpython-37.pyc',
   'DATA'),
  ('pygame\\tests\\__pycache__\\mixer_music_test.cpython-37.pyc',
   'E:/Program '
   'Files/Python/Python37/Lib/site-packages/pygame/tests\\__pycache__\\mixer_music_test.cpython-37.pyc',
   'DATA'),
  ('pygame\\tests\\__pycache__\\mixer_tags.cpython-37.pyc',
   'E:/Program '
   'Files/Python/Python37/Lib/site-packages/pygame/tests\\__pycache__\\mixer_tags.cpython-37.pyc',
   'DATA'),
  ('pygame\\tests\\__pycache__\\mixer_test.cpython-37.pyc',
   'E:/Program '
   'Files/Python/Python37/Lib/site-packages/pygame/tests\\__pycache__\\mixer_test.cpython-37.pyc',
   'DATA'),
  ('pygame\\tests\\__pycache__\\mouse_test.cpython-37.pyc',
   'E:/Program '
   'Files/Python/Python37/Lib/site-packages/pygame/tests\\__pycache__\\mouse_test.cpython-37.pyc',
   'DATA'),
  ('pygame\\tests\\__pycache__\\overlay_tags.cpython-37.pyc',
   'E:/Program '
   'Files/Python/Python37/Lib/site-packages/pygame/tests\\__pycache__\\overlay_tags.cpython-37.pyc',
   'DATA'),
  ('pygame\\tests\\__pycache__\\overlay_test.cpython-37.pyc',
   'E:/Program '
   'Files/Python/Python37/Lib/site-packages/pygame/tests\\__pycache__\\overlay_test.cpython-37.pyc',
   'DATA'),
  ('pygame\\tests\\__pycache__\\pixelarray_test.cpython-37.pyc',
   'E:/Program '
   'Files/Python/Python37/Lib/site-packages/pygame/tests\\__pycache__\\pixelarray_test.cpython-37.pyc',
   'DATA'),
  ('pygame\\tests\\__pycache__\\pixelcopy_test.cpython-37.pyc',
   'E:/Program '
   'Files/Python/Python37/Lib/site-packages/pygame/tests\\__pycache__\\pixelcopy_test.cpython-37.pyc',
   'DATA'),
  ('pygame\\tests\\__pycache__\\rect_test.cpython-37.pyc',
   'E:/Program '
   'Files/Python/Python37/Lib/site-packages/pygame/tests\\__pycache__\\rect_test.cpython-37.pyc',
   'DATA'),
  ('pygame\\tests\\__pycache__\\rwobject_test.cpython-37.pyc',
   'E:/Program '
   'Files/Python/Python37/Lib/site-packages/pygame/tests\\__pycache__\\rwobject_test.cpython-37.pyc',
   'DATA'),
  ('pygame\\tests\\__pycache__\\scrap_tags.cpython-37.pyc',
   'E:/Program '
   'Files/Python/Python37/Lib/site-packages/pygame/tests\\__pycache__\\scrap_tags.cpython-37.pyc',
   'DATA'),
  ('pygame\\tests\\__pycache__\\scrap_test.cpython-37.pyc',
   'E:/Program '
   'Files/Python/Python37/Lib/site-packages/pygame/tests\\__pycache__\\scrap_test.cpython-37.pyc',
   'DATA'),
  ('pygame\\tests\\__pycache__\\sndarray_tags.cpython-37.pyc',
   'E:/Program '
   'Files/Python/Python37/Lib/site-packages/pygame/tests\\__pycache__\\sndarray_tags.cpython-37.pyc',
   'DATA'),
  ('pygame\\tests\\__pycache__\\sndarray_test.cpython-37.pyc',
   'E:/Program '
   'Files/Python/Python37/Lib/site-packages/pygame/tests\\__pycache__\\sndarray_test.cpython-37.pyc',
   'DATA'),
  ('pygame\\tests\\__pycache__\\sprite_test.cpython-37.pyc',
   'E:/Program '
   'Files/Python/Python37/Lib/site-packages/pygame/tests\\__pycache__\\sprite_test.cpython-37.pyc',
   'DATA'),
  ('pygame\\tests\\__pycache__\\surface_test.cpython-37.pyc',
   'E:/Program '
   'Files/Python/Python37/Lib/site-packages/pygame/tests\\__pycache__\\surface_test.cpython-37.pyc',
   'DATA'),
  ('pygame\\tests\\__pycache__\\surfarray_tags.cpython-37.pyc',
   'E:/Program '
   'Files/Python/Python37/Lib/site-packages/pygame/tests\\__pycache__\\surfarray_tags.cpython-37.pyc',
   'DATA'),
  ('pygame\\tests\\__pycache__\\surfarray_test.cpython-37.pyc',
   'E:/Program '
   'Files/Python/Python37/Lib/site-packages/pygame/tests\\__pycache__\\surfarray_test.cpython-37.pyc',
   'DATA'),
  ('pygame\\tests\\__pycache__\\surflock_test.cpython-37.pyc',
   'E:/Program '
   'Files/Python/Python37/Lib/site-packages/pygame/tests\\__pycache__\\surflock_test.cpython-37.pyc',
   'DATA'),
  ('pygame\\tests\\__pycache__\\sysfont_test.cpython-37.pyc',
   'E:/Program '
   'Files/Python/Python37/Lib/site-packages/pygame/tests\\__pycache__\\sysfont_test.cpython-37.pyc',
   'DATA'),
  ('pygame\\tests\\__pycache__\\test_test_.cpython-37.pyc',
   'E:/Program '
   'Files/Python/Python37/Lib/site-packages/pygame/tests\\__pycache__\\test_test_.cpython-37.pyc',
   'DATA'),
  ('pygame\\tests\\__pycache__\\threads_test.cpython-37.pyc',
   'E:/Program '
   'Files/Python/Python37/Lib/site-packages/pygame/tests\\__pycache__\\threads_test.cpython-37.pyc',
   'DATA'),
  ('pygame\\tests\\__pycache__\\time_test.cpython-37.pyc',
   'E:/Program '
   'Files/Python/Python37/Lib/site-packages/pygame/tests\\__pycache__\\time_test.cpython-37.pyc',
   'DATA'),
  ('pygame\\tests\\__pycache__\\touch_tags.cpython-37.pyc',
   'E:/Program '
   'Files/Python/Python37/Lib/site-packages/pygame/tests\\__pycache__\\touch_tags.cpython-37.pyc',
   'DATA'),
  ('pygame\\tests\\__pycache__\\touch_test.cpython-37.pyc',
   'E:/Program '
   'Files/Python/Python37/Lib/site-packages/pygame/tests\\__pycache__\\touch_test.cpython-37.pyc',
   'DATA'),
  ('pygame\\tests\\__pycache__\\transform_test.cpython-37.pyc',
   'E:/Program '
   'Files/Python/Python37/Lib/site-packages/pygame/tests\\__pycache__\\transform_test.cpython-37.pyc',
   'DATA'),
  ('pygame\\tests\\__pycache__\\version_test.cpython-37.pyc',
   'E:/Program '
   'Files/Python/Python37/Lib/site-packages/pygame/tests\\__pycache__\\version_test.cpython-37.pyc',
   'DATA'),
  ('pygame\\tests\\__pycache__\\__init__.cpython-37.pyc',
   'E:/Program '
   'Files/Python/Python37/Lib/site-packages/pygame/tests\\__pycache__\\__init__.cpython-37.pyc',
   'DATA'),
  ('pygame\\tests\\__pycache__\\__main__.cpython-37.pyc',
   'E:/Program '
   'Files/Python/Python37/Lib/site-packages/pygame/tests\\__pycache__\\__main__.cpython-37.pyc',
   'DATA'),
  ('pygame\\tests\\test_utils\\arrinter.py',
   'E:/Program '
   'Files/Python/Python37/Lib/site-packages/pygame/tests\\test_utils\\arrinter.py',
   'DATA'),
  ('pygame\\tests\\test_utils\\async_sub.py',
   'E:/Program '
   'Files/Python/Python37/Lib/site-packages/pygame/tests\\test_utils\\async_sub.py',
   'DATA'),
  ('pygame\\tests\\test_utils\\buftools.py',
   'E:/Program '
   'Files/Python/Python37/Lib/site-packages/pygame/tests\\test_utils\\buftools.py',
   'DATA'),
  ('pygame\\tests\\test_utils\\endian.py',
   'E:/Program '
   'Files/Python/Python37/Lib/site-packages/pygame/tests\\test_utils\\endian.py',
   'DATA'),
  ('pygame\\tests\\test_utils\\png.py',
   'E:/Program '
   'Files/Python/Python37/Lib/site-packages/pygame/tests\\test_utils\\png.py',
   'DATA'),
  ('pygame\\tests\\test_utils\\run_tests.py',
   'E:/Program '
   'Files/Python/Python37/Lib/site-packages/pygame/tests\\test_utils\\run_tests.py',
   'DATA'),
  ('pygame\\tests\\test_utils\\test_machinery.py',
   'E:/Program '
   'Files/Python/Python37/Lib/site-packages/pygame/tests\\test_utils\\test_machinery.py',
   'DATA'),
  ('pygame\\tests\\test_utils\\test_runner.py',
   'E:/Program '
   'Files/Python/Python37/Lib/site-packages/pygame/tests\\test_utils\\test_runner.py',
   'DATA'),
  ('pygame\\tests\\test_utils\\__init__.py',
   'E:/Program '
   'Files/Python/Python37/Lib/site-packages/pygame/tests\\test_utils\\__init__.py',
   'DATA'),
  ('pygame\\tests\\test_utils\\__pycache__\\arrinter.cpython-37.pyc',
   'E:/Program '
   'Files/Python/Python37/Lib/site-packages/pygame/tests\\test_utils\\__pycache__\\arrinter.cpython-37.pyc',
   'DATA'),
  ('pygame\\tests\\test_utils\\__pycache__\\async_sub.cpython-37.pyc',
   'E:/Program '
   'Files/Python/Python37/Lib/site-packages/pygame/tests\\test_utils\\__pycache__\\async_sub.cpython-37.pyc',
   'DATA'),
  ('pygame\\tests\\test_utils\\__pycache__\\buftools.cpython-37.pyc',
   'E:/Program '
   'Files/Python/Python37/Lib/site-packages/pygame/tests\\test_utils\\__pycache__\\buftools.cpython-37.pyc',
   'DATA'),
  ('pygame\\tests\\test_utils\\__pycache__\\endian.cpython-37.pyc',
   'E:/Program '
   'Files/Python/Python37/Lib/site-packages/pygame/tests\\test_utils\\__pycache__\\endian.cpython-37.pyc',
   'DATA'),
  ('pygame\\tests\\test_utils\\__pycache__\\png.cpython-37.pyc',
   'E:/Program '
   'Files/Python/Python37/Lib/site-packages/pygame/tests\\test_utils\\__pycache__\\png.cpython-37.pyc',
   'DATA'),
  ('pygame\\tests\\test_utils\\__pycache__\\run_tests.cpython-37.pyc',
   'E:/Program '
   'Files/Python/Python37/Lib/site-packages/pygame/tests\\test_utils\\__pycache__\\run_tests.cpython-37.pyc',
   'DATA'),
  ('pygame\\tests\\test_utils\\__pycache__\\test_machinery.cpython-37.pyc',
   'E:/Program '
   'Files/Python/Python37/Lib/site-packages/pygame/tests\\test_utils\\__pycache__\\test_machinery.cpython-37.pyc',
   'DATA'),
  ('pygame\\tests\\test_utils\\__pycache__\\test_runner.cpython-37.pyc',
   'E:/Program '
   'Files/Python/Python37/Lib/site-packages/pygame/tests\\test_utils\\__pycache__\\test_runner.cpython-37.pyc',
   'DATA'),
  ('pygame\\tests\\test_utils\\__pycache__\\__init__.cpython-37.pyc',
   'E:/Program '
   'Files/Python/Python37/Lib/site-packages/pygame/tests\\test_utils\\__pycache__\\__init__.cpython-37.pyc',
   'DATA'),
  ('pygame\\tests\\run_tests__tests\\run_tests__test.py',
   'E:/Program '
   'Files/Python/Python37/Lib/site-packages/pygame/tests\\run_tests__tests\\run_tests__test.py',
   'DATA'),
  ('pygame\\tests\\run_tests__tests\\__init__.py',
   'E:/Program '
   'Files/Python/Python37/Lib/site-packages/pygame/tests\\run_tests__tests\\__init__.py',
   'DATA'),
  ('pygame\\tests\\run_tests__tests\\__pycache__\\run_tests__test.cpython-37.pyc',
   'E:/Program '
   'Files/Python/Python37/Lib/site-packages/pygame/tests\\run_tests__tests\\__pycache__\\run_tests__test.cpython-37.pyc',
   'DATA'),
  ('pygame\\tests\\run_tests__tests\\__pycache__\\__init__.cpython-37.pyc',
   'E:/Program '
   'Files/Python/Python37/Lib/site-packages/pygame/tests\\run_tests__tests\\__pycache__\\__init__.cpython-37.pyc',
   'DATA'),
  ('pygame\\tests\\run_tests__tests\\timeout\\fake_2_test.py',
   'E:/Program '
   'Files/Python/Python37/Lib/site-packages/pygame/tests\\run_tests__tests\\timeout\\fake_2_test.py',
   'DATA'),
  ('pygame\\tests\\run_tests__tests\\timeout\\sleep_test.py',
   'E:/Program '
   'Files/Python/Python37/Lib/site-packages/pygame/tests\\run_tests__tests\\timeout\\sleep_test.py',
   'DATA'),
  ('pygame\\tests\\run_tests__tests\\timeout\\__init__.py',
   'E:/Program '
   'Files/Python/Python37/Lib/site-packages/pygame/tests\\run_tests__tests\\timeout\\__init__.py',
   'DATA'),
  ('pygame\\tests\\run_tests__tests\\timeout\\__pycache__\\fake_2_test.cpython-37.pyc',
   'E:/Program '
   'Files/Python/Python37/Lib/site-packages/pygame/tests\\run_tests__tests\\timeout\\__pycache__\\fake_2_test.cpython-37.pyc',
   'DATA'),
  ('pygame\\tests\\run_tests__tests\\timeout\\__pycache__\\sleep_test.cpython-37.pyc',
   'E:/Program '
   'Files/Python/Python37/Lib/site-packages/pygame/tests\\run_tests__tests\\timeout\\__pycache__\\sleep_test.cpython-37.pyc',
   'DATA'),
  ('pygame\\tests\\run_tests__tests\\timeout\\__pycache__\\__init__.cpython-37.pyc',
   'E:/Program '
   'Files/Python/Python37/Lib/site-packages/pygame/tests\\run_tests__tests\\timeout\\__pycache__\\__init__.cpython-37.pyc',
   'DATA'),
  ('pygame\\tests\\run_tests__tests\\print_stdout\\fake_2_test.py',
   'E:/Program '
   'Files/Python/Python37/Lib/site-packages/pygame/tests\\run_tests__tests\\print_stdout\\fake_2_test.py',
   'DATA'),
  ('pygame\\tests\\run_tests__tests\\print_stdout\\fake_3_test.py',
   'E:/Program '
   'Files/Python/Python37/Lib/site-packages/pygame/tests\\run_tests__tests\\print_stdout\\fake_3_test.py',
   'DATA'),
  ('pygame\\tests\\run_tests__tests\\print_stdout\\fake_4_test.py',
   'E:/Program '
   'Files/Python/Python37/Lib/site-packages/pygame/tests\\run_tests__tests\\print_stdout\\fake_4_test.py',
   'DATA'),
  ('pygame\\tests\\run_tests__tests\\print_stdout\\__init__.py',
   'E:/Program '
   'Files/Python/Python37/Lib/site-packages/pygame/tests\\run_tests__tests\\print_stdout\\__init__.py',
   'DATA'),
  ('pygame\\tests\\run_tests__tests\\print_stdout\\__pycache__\\fake_2_test.cpython-37.pyc',
   'E:/Program '
   'Files/Python/Python37/Lib/site-packages/pygame/tests\\run_tests__tests\\print_stdout\\__pycache__\\fake_2_test.cpython-37.pyc',
   'DATA'),
  ('pygame\\tests\\run_tests__tests\\print_stdout\\__pycache__\\fake_3_test.cpython-37.pyc',
   'E:/Program '
   'Files/Python/Python37/Lib/site-packages/pygame/tests\\run_tests__tests\\print_stdout\\__pycache__\\fake_3_test.cpython-37.pyc',
   'DATA'),
  ('pygame\\tests\\run_tests__tests\\print_stdout\\__pycache__\\fake_4_test.cpython-37.pyc',
   'E:/Program '
   'Files/Python/Python37/Lib/site-packages/pygame/tests\\run_tests__tests\\print_stdout\\__pycache__\\fake_4_test.cpython-37.pyc',
   'DATA'),
  ('pygame\\tests\\run_tests__tests\\print_stdout\\__pycache__\\__init__.cpython-37.pyc',
   'E:/Program '
   'Files/Python/Python37/Lib/site-packages/pygame/tests\\run_tests__tests\\print_stdout\\__pycache__\\__init__.cpython-37.pyc',
   'DATA'),
  ('pygame\\tests\\run_tests__tests\\print_stderr\\fake_2_test.py',
   'E:/Program '
   'Files/Python/Python37/Lib/site-packages/pygame/tests\\run_tests__tests\\print_stderr\\fake_2_test.py',
   'DATA'),
  ('pygame\\tests\\run_tests__tests\\print_stderr\\fake_3_test.py',
   'E:/Program '
   'Files/Python/Python37/Lib/site-packages/pygame/tests\\run_tests__tests\\print_stderr\\fake_3_test.py',
   'DATA'),
  ('pygame\\tests\\run_tests__tests\\print_stderr\\fake_4_test.py',
   'E:/Program '
   'Files/Python/Python37/Lib/site-packages/pygame/tests\\run_tests__tests\\print_stderr\\fake_4_test.py',
   'DATA'),
  ('pygame\\tests\\run_tests__tests\\print_stderr\\__init__.py',
   'E:/Program '
   'Files/Python/Python37/Lib/site-packages/pygame/tests\\run_tests__tests\\print_stderr\\__init__.py',
   'DATA'),
  ('pygame\\tests\\run_tests__tests\\print_stderr\\__pycache__\\fake_2_test.cpython-37.pyc',
   'E:/Program '
   'Files/Python/Python37/Lib/site-packages/pygame/tests\\run_tests__tests\\print_stderr\\__pycache__\\fake_2_test.cpython-37.pyc',
   'DATA'),
  ('pygame\\tests\\run_tests__tests\\print_stderr\\__pycache__\\fake_3_test.cpython-37.pyc',
   'E:/Program '
   'Files/Python/Python37/Lib/site-packages/pygame/tests\\run_tests__tests\\print_stderr\\__pycache__\\fake_3_test.cpython-37.pyc',
   'DATA'),
  ('pygame\\tests\\run_tests__tests\\print_stderr\\__pycache__\\fake_4_test.cpython-37.pyc',
   'E:/Program '
   'Files/Python/Python37/Lib/site-packages/pygame/tests\\run_tests__tests\\print_stderr\\__pycache__\\fake_4_test.cpython-37.pyc',
   'DATA'),
  ('pygame\\tests\\run_tests__tests\\print_stderr\\__pycache__\\__init__.cpython-37.pyc',
   'E:/Program '
   'Files/Python/Python37/Lib/site-packages/pygame/tests\\run_tests__tests\\print_stderr\\__pycache__\\__init__.cpython-37.pyc',
   'DATA'),
  ('pygame\\tests\\run_tests__tests\\infinite_loop\\fake_1_test.py',
   'E:/Program '
   'Files/Python/Python37/Lib/site-packages/pygame/tests\\run_tests__tests\\infinite_loop\\fake_1_test.py',
   'DATA'),
  ('pygame\\tests\\run_tests__tests\\infinite_loop\\fake_2_test.py',
   'E:/Program '
   'Files/Python/Python37/Lib/site-packages/pygame/tests\\run_tests__tests\\infinite_loop\\fake_2_test.py',
   'DATA'),
  ('pygame\\tests\\run_tests__tests\\infinite_loop\\__init__.py',
   'E:/Program '
   'Files/Python/Python37/Lib/site-packages/pygame/tests\\run_tests__tests\\infinite_loop\\__init__.py',
   'DATA'),
  ('pygame\\tests\\run_tests__tests\\infinite_loop\\__pycache__\\fake_1_test.cpython-37.pyc',
   'E:/Program '
   'Files/Python/Python37/Lib/site-packages/pygame/tests\\run_tests__tests\\infinite_loop\\__pycache__\\fake_1_test.cpython-37.pyc',
   'DATA'),
  ('pygame\\tests\\run_tests__tests\\infinite_loop\\__pycache__\\fake_2_test.cpython-37.pyc',
   'E:/Program '
   'Files/Python/Python37/Lib/site-packages/pygame/tests\\run_tests__tests\\infinite_loop\\__pycache__\\fake_2_test.cpython-37.pyc',
   'DATA'),
  ('pygame\\tests\\run_tests__tests\\infinite_loop\\__pycache__\\__init__.cpython-37.pyc',
   'E:/Program '
   'Files/Python/Python37/Lib/site-packages/pygame/tests\\run_tests__tests\\infinite_loop\\__pycache__\\__init__.cpython-37.pyc',
   'DATA'),
  ('pygame\\tests\\run_tests__tests\\incomplete_todo\\fake_2_test.py',
   'E:/Program '
   'Files/Python/Python37/Lib/site-packages/pygame/tests\\run_tests__tests\\incomplete_todo\\fake_2_test.py',
   'DATA'),
  ('pygame\\tests\\run_tests__tests\\incomplete_todo\\fake_3_test.py',
   'E:/Program '
   'Files/Python/Python37/Lib/site-packages/pygame/tests\\run_tests__tests\\incomplete_todo\\fake_3_test.py',
   'DATA'),
  ('pygame\\tests\\run_tests__tests\\incomplete_todo\\__init__.py',
   'E:/Program '
   'Files/Python/Python37/Lib/site-packages/pygame/tests\\run_tests__tests\\incomplete_todo\\__init__.py',
   'DATA'),
  ('pygame\\tests\\run_tests__tests\\incomplete_todo\\__pycache__\\fake_2_test.cpython-37.pyc',
   'E:/Program '
   'Files/Python/Python37/Lib/site-packages/pygame/tests\\run_tests__tests\\incomplete_todo\\__pycache__\\fake_2_test.cpython-37.pyc',
   'DATA'),
  ('pygame\\tests\\run_tests__tests\\incomplete_todo\\__pycache__\\fake_3_test.cpython-37.pyc',
   'E:/Program '
   'Files/Python/Python37/Lib/site-packages/pygame/tests\\run_tests__tests\\incomplete_todo\\__pycache__\\fake_3_test.cpython-37.pyc',
   'DATA'),
  ('pygame\\tests\\run_tests__tests\\incomplete_todo\\__pycache__\\__init__.cpython-37.pyc',
   'E:/Program '
   'Files/Python/Python37/Lib/site-packages/pygame/tests\\run_tests__tests\\incomplete_todo\\__pycache__\\__init__.cpython-37.pyc',
   'DATA'),
  ('pygame\\tests\\run_tests__tests\\incomplete\\fake_2_test.py',
   'E:/Program '
   'Files/Python/Python37/Lib/site-packages/pygame/tests\\run_tests__tests\\incomplete\\fake_2_test.py',
   'DATA'),
  ('pygame\\tests\\run_tests__tests\\incomplete\\fake_3_test.py',
   'E:/Program '
   'Files/Python/Python37/Lib/site-packages/pygame/tests\\run_tests__tests\\incomplete\\fake_3_test.py',
   'DATA'),
  ('pygame\\tests\\run_tests__tests\\incomplete\\__init__.py',
   'E:/Program '
   'Files/Python/Python37/Lib/site-packages/pygame/tests\\run_tests__tests\\incomplete\\__init__.py',
   'DATA'),
  ('pygame\\tests\\run_tests__tests\\incomplete\\__pycache__\\fake_2_test.cpython-37.pyc',
   'E:/Program '
   'Files/Python/Python37/Lib/site-packages/pygame/tests\\run_tests__tests\\incomplete\\__pycache__\\fake_2_test.cpython-37.pyc',
   'DATA'),
  ('pygame\\tests\\run_tests__tests\\incomplete\\__pycache__\\fake_3_test.cpython-37.pyc',
   'E:/Program '
   'Files/Python/Python37/Lib/site-packages/pygame/tests\\run_tests__tests\\incomplete\\__pycache__\\fake_3_test.cpython-37.pyc',
   'DATA'),
  ('pygame\\tests\\run_tests__tests\\incomplete\\__pycache__\\__init__.cpython-37.pyc',
   'E:/Program '
   'Files/Python/Python37/Lib/site-packages/pygame/tests\\run_tests__tests\\incomplete\\__pycache__\\__init__.cpython-37.pyc',
   'DATA'),
  ('pygame\\tests\\run_tests__tests\\failures1\\fake_2_test.py',
   'E:/Program '
   'Files/Python/Python37/Lib/site-packages/pygame/tests\\run_tests__tests\\failures1\\fake_2_test.py',
   'DATA'),
  ('pygame\\tests\\run_tests__tests\\failures1\\fake_3_test.py',
   'E:/Program '
   'Files/Python/Python37/Lib/site-packages/pygame/tests\\run_tests__tests\\failures1\\fake_3_test.py',
   'DATA'),
  ('pygame\\tests\\run_tests__tests\\failures1\\fake_4_test.py',
   'E:/Program '
   'Files/Python/Python37/Lib/site-packages/pygame/tests\\run_tests__tests\\failures1\\fake_4_test.py',
   'DATA'),
  ('pygame\\tests\\run_tests__tests\\failures1\\__init__.py',
   'E:/Program '
   'Files/Python/Python37/Lib/site-packages/pygame/tests\\run_tests__tests\\failures1\\__init__.py',
   'DATA'),
  ('pygame\\tests\\run_tests__tests\\failures1\\__pycache__\\fake_2_test.cpython-37.pyc',
   'E:/Program '
   'Files/Python/Python37/Lib/site-packages/pygame/tests\\run_tests__tests\\failures1\\__pycache__\\fake_2_test.cpython-37.pyc',
   'DATA'),
  ('pygame\\tests\\run_tests__tests\\failures1\\__pycache__\\fake_3_test.cpython-37.pyc',
   'E:/Program '
   'Files/Python/Python37/Lib/site-packages/pygame/tests\\run_tests__tests\\failures1\\__pycache__\\fake_3_test.cpython-37.pyc',
   'DATA'),
  ('pygame\\tests\\run_tests__tests\\failures1\\__pycache__\\fake_4_test.cpython-37.pyc',
   'E:/Program '
   'Files/Python/Python37/Lib/site-packages/pygame/tests\\run_tests__tests\\failures1\\__pycache__\\fake_4_test.cpython-37.pyc',
   'DATA'),
  ('pygame\\tests\\run_tests__tests\\failures1\\__pycache__\\__init__.cpython-37.pyc',
   'E:/Program '
   'Files/Python/Python37/Lib/site-packages/pygame/tests\\run_tests__tests\\failures1\\__pycache__\\__init__.cpython-37.pyc',
   'DATA'),
  ('pygame\\tests\\run_tests__tests\\exclude\\fake_2_test.py',
   'E:/Program '
   'Files/Python/Python37/Lib/site-packages/pygame/tests\\run_tests__tests\\exclude\\fake_2_test.py',
   'DATA'),
  ('pygame\\tests\\run_tests__tests\\exclude\\invisible_tag_test.py',
   'E:/Program '
   'Files/Python/Python37/Lib/site-packages/pygame/tests\\run_tests__tests\\exclude\\invisible_tag_test.py',
   'DATA'),
  ('pygame\\tests\\run_tests__tests\\exclude\\magic_tag_test.py',
   'E:/Program '
   'Files/Python/Python37/Lib/site-packages/pygame/tests\\run_tests__tests\\exclude\\magic_tag_test.py',
   'DATA'),
  ('pygame\\tests\\run_tests__tests\\exclude\\__init__.py',
   'E:/Program '
   'Files/Python/Python37/Lib/site-packages/pygame/tests\\run_tests__tests\\exclude\\__init__.py',
   'DATA'),
  ('pygame\\tests\\run_tests__tests\\exclude\\__pycache__\\fake_2_test.cpython-37.pyc',
   'E:/Program '
   'Files/Python/Python37/Lib/site-packages/pygame/tests\\run_tests__tests\\exclude\\__pycache__\\fake_2_test.cpython-37.pyc',
   'DATA'),
  ('pygame\\tests\\run_tests__tests\\exclude\\__pycache__\\invisible_tag_test.cpython-37.pyc',
   'E:/Program '
   'Files/Python/Python37/Lib/site-packages/pygame/tests\\run_tests__tests\\exclude\\__pycache__\\invisible_tag_test.cpython-37.pyc',
   'DATA'),
  ('pygame\\tests\\run_tests__tests\\exclude\\__pycache__\\magic_tag_test.cpython-37.pyc',
   'E:/Program '
   'Files/Python/Python37/Lib/site-packages/pygame/tests\\run_tests__tests\\exclude\\__pycache__\\magic_tag_test.cpython-37.pyc',
   'DATA'),
  ('pygame\\tests\\run_tests__tests\\exclude\\__pycache__\\__init__.cpython-37.pyc',
   'E:/Program '
   'Files/Python/Python37/Lib/site-packages/pygame/tests\\run_tests__tests\\exclude\\__pycache__\\__init__.cpython-37.pyc',
   'DATA'),
  ('pygame\\tests\\run_tests__tests\\everything\\fake_2_test.py',
   'E:/Program '
   'Files/Python/Python37/Lib/site-packages/pygame/tests\\run_tests__tests\\everything\\fake_2_test.py',
   'DATA'),
  ('pygame\\tests\\run_tests__tests\\everything\\incomplete_todo_test.py',
   'E:/Program '
   'Files/Python/Python37/Lib/site-packages/pygame/tests\\run_tests__tests\\everything\\incomplete_todo_test.py',
   'DATA'),
  ('pygame\\tests\\run_tests__tests\\everything\\magic_tag_test.py',
   'E:/Program '
   'Files/Python/Python37/Lib/site-packages/pygame/tests\\run_tests__tests\\everything\\magic_tag_test.py',
   'DATA'),
  ('pygame\\tests\\run_tests__tests\\everything\\sleep_test.py',
   'E:/Program '
   'Files/Python/Python37/Lib/site-packages/pygame/tests\\run_tests__tests\\everything\\sleep_test.py',
   'DATA'),
  ('pygame\\tests\\run_tests__tests\\everything\\__init__.py',
   'E:/Program '
   'Files/Python/Python37/Lib/site-packages/pygame/tests\\run_tests__tests\\everything\\__init__.py',
   'DATA'),
  ('pygame\\tests\\run_tests__tests\\everything\\__pycache__\\fake_2_test.cpython-37.pyc',
   'E:/Program '
   'Files/Python/Python37/Lib/site-packages/pygame/tests\\run_tests__tests\\everything\\__pycache__\\fake_2_test.cpython-37.pyc',
   'DATA'),
  ('pygame\\tests\\run_tests__tests\\everything\\__pycache__\\incomplete_todo_test.cpython-37.pyc',
   'E:/Program '
   'Files/Python/Python37/Lib/site-packages/pygame/tests\\run_tests__tests\\everything\\__pycache__\\incomplete_todo_test.cpython-37.pyc',
   'DATA'),
  ('pygame\\tests\\run_tests__tests\\everything\\__pycache__\\magic_tag_test.cpython-37.pyc',
   'E:/Program '
   'Files/Python/Python37/Lib/site-packages/pygame/tests\\run_tests__tests\\everything\\__pycache__\\magic_tag_test.cpython-37.pyc',
   'DATA'),
  ('pygame\\tests\\run_tests__tests\\everything\\__pycache__\\sleep_test.cpython-37.pyc',
   'E:/Program '
   'Files/Python/Python37/Lib/site-packages/pygame/tests\\run_tests__tests\\everything\\__pycache__\\sleep_test.cpython-37.pyc',
   'DATA'),
  ('pygame\\tests\\run_tests__tests\\everything\\__pycache__\\__init__.cpython-37.pyc',
   'E:/Program '
   'Files/Python/Python37/Lib/site-packages/pygame/tests\\run_tests__tests\\everything\\__pycache__\\__init__.cpython-37.pyc',
   'DATA'),
  ('pygame\\tests\\run_tests__tests\\all_ok\\fake_2_test.py',
   'E:/Program '
   'Files/Python/Python37/Lib/site-packages/pygame/tests\\run_tests__tests\\all_ok\\fake_2_test.py',
   'DATA'),
  ('pygame\\tests\\run_tests__tests\\all_ok\\fake_3_test.py',
   'E:/Program '
   'Files/Python/Python37/Lib/site-packages/pygame/tests\\run_tests__tests\\all_ok\\fake_3_test.py',
   'DATA'),
  ('pygame\\tests\\run_tests__tests\\all_ok\\fake_4_test.py',
   'E:/Program '
   'Files/Python/Python37/Lib/site-packages/pygame/tests\\run_tests__tests\\all_ok\\fake_4_test.py',
   'DATA'),
  ('pygame\\tests\\run_tests__tests\\all_ok\\fake_5_test.py',
   'E:/Program '
   'Files/Python/Python37/Lib/site-packages/pygame/tests\\run_tests__tests\\all_ok\\fake_5_test.py',
   'DATA'),
  ('pygame\\tests\\run_tests__tests\\all_ok\\fake_6_test.py',
   'E:/Program '
   'Files/Python/Python37/Lib/site-packages/pygame/tests\\run_tests__tests\\all_ok\\fake_6_test.py',
   'DATA'),
  ('pygame\\tests\\run_tests__tests\\all_ok\\no_assertions__ret_code_of_1__test.py',
   'E:/Program '
   'Files/Python/Python37/Lib/site-packages/pygame/tests\\run_tests__tests\\all_ok\\no_assertions__ret_code_of_1__test.py',
   'DATA'),
  ('pygame\\tests\\run_tests__tests\\all_ok\\zero_tests_test.py',
   'E:/Program '
   'Files/Python/Python37/Lib/site-packages/pygame/tests\\run_tests__tests\\all_ok\\zero_tests_test.py',
   'DATA'),
  ('pygame\\tests\\run_tests__tests\\all_ok\\__init__.py',
   'E:/Program '
   'Files/Python/Python37/Lib/site-packages/pygame/tests\\run_tests__tests\\all_ok\\__init__.py',
   'DATA'),
  ('pygame\\tests\\run_tests__tests\\all_ok\\__pycache__\\fake_2_test.cpython-37.pyc',
   'E:/Program '
   'Files/Python/Python37/Lib/site-packages/pygame/tests\\run_tests__tests\\all_ok\\__pycache__\\fake_2_test.cpython-37.pyc',
   'DATA'),
  ('pygame\\tests\\run_tests__tests\\all_ok\\__pycache__\\fake_3_test.cpython-37.pyc',
   'E:/Program '
   'Files/Python/Python37/Lib/site-packages/pygame/tests\\run_tests__tests\\all_ok\\__pycache__\\fake_3_test.cpython-37.pyc',
   'DATA'),
  ('pygame\\tests\\run_tests__tests\\all_ok\\__pycache__\\fake_4_test.cpython-37.pyc',
   'E:/Program '
   'Files/Python/Python37/Lib/site-packages/pygame/tests\\run_tests__tests\\all_ok\\__pycache__\\fake_4_test.cpython-37.pyc',
   'DATA'),
  ('pygame\\tests\\run_tests__tests\\all_ok\\__pycache__\\fake_5_test.cpython-37.pyc',
   'E:/Program '
   'Files/Python/Python37/Lib/site-packages/pygame/tests\\run_tests__tests\\all_ok\\__pycache__\\fake_5_test.cpython-37.pyc',
   'DATA'),
  ('pygame\\tests\\run_tests__tests\\all_ok\\__pycache__\\fake_6_test.cpython-37.pyc',
   'E:/Program '
   'Files/Python/Python37/Lib/site-packages/pygame/tests\\run_tests__tests\\all_ok\\__pycache__\\fake_6_test.cpython-37.pyc',
   'DATA'),
  ('pygame\\tests\\run_tests__tests\\all_ok\\__pycache__\\no_assertions__ret_code_of_1__test.cpython-37.pyc',
   'E:/Program '
   'Files/Python/Python37/Lib/site-packages/pygame/tests\\run_tests__tests\\all_ok\\__pycache__\\no_assertions__ret_code_of_1__test.cpython-37.pyc',
   'DATA'),
  ('pygame\\tests\\run_tests__tests\\all_ok\\__pycache__\\zero_tests_test.cpython-37.pyc',
   'E:/Program '
   'Files/Python/Python37/Lib/site-packages/pygame/tests\\run_tests__tests\\all_ok\\__pycache__\\zero_tests_test.cpython-37.pyc',
   'DATA'),
  ('pygame\\tests\\run_tests__tests\\all_ok\\__pycache__\\__init__.cpython-37.pyc',
   'E:/Program '
   'Files/Python/Python37/Lib/site-packages/pygame/tests\\run_tests__tests\\all_ok\\__pycache__\\__init__.cpython-37.pyc',
   'DATA'),
  ('pygame\\tests\\fixtures\\xbm_cursors\\white_sizing.xbm',
   'E:/Program '
   'Files/Python/Python37/Lib/site-packages/pygame/tests\\fixtures\\xbm_cursors\\white_sizing.xbm',
   'DATA'),
  ('pygame\\tests\\fixtures\\xbm_cursors\\white_sizing_mask.xbm',
   'E:/Program '
   'Files/Python/Python37/Lib/site-packages/pygame/tests\\fixtures\\xbm_cursors\\white_sizing_mask.xbm',
   'DATA'),
  ('pygame\\tests\\fixtures\\fonts\\A_PyGameMono-8.png',
   'E:/Program '
   'Files/Python/Python37/Lib/site-packages/pygame/tests\\fixtures\\fonts\\A_PyGameMono-8.png',
   'DATA'),
  ('pygame\\tests\\fixtures\\fonts\\PyGameMono-18-100dpi.bdf',
   'E:/Program '
   'Files/Python/Python37/Lib/site-packages/pygame/tests\\fixtures\\fonts\\PyGameMono-18-100dpi.bdf',
   'DATA'),
  ('pygame\\tests\\fixtures\\fonts\\PyGameMono-18-75dpi.bdf',
   'E:/Program '
   'Files/Python/Python37/Lib/site-packages/pygame/tests\\fixtures\\fonts\\PyGameMono-18-75dpi.bdf',
   'DATA'),
  ('pygame\\tests\\fixtures\\fonts\\PyGameMono-8.bdf',
   'E:/Program '
   'Files/Python/Python37/Lib/site-packages/pygame/tests\\fixtures\\fonts\\PyGameMono-8.bdf',
   'DATA'),
  ('pygame\\tests\\fixtures\\fonts\\PyGameMono.otf',
   'E:/Program '
   'Files/Python/Python37/Lib/site-packages/pygame/tests\\fixtures\\fonts\\PyGameMono.otf',
   'DATA'),
  ('pygame\\tests\\fixtures\\fonts\\test_fixed.otf',
   'E:/Program '
   'Files/Python/Python37/Lib/site-packages/pygame/tests\\fixtures\\fonts\\test_fixed.otf',
   'DATA'),
  ('pygame\\tests\\fixtures\\fonts\\test_sans.ttf',
   'E:/Program '
   'Files/Python/Python37/Lib/site-packages/pygame/tests\\fixtures\\fonts\\test_sans.ttf',
   'DATA'),
  ('pygame\\tests\\fixtures\\fonts\\u13079_PyGameMono-8.png',
   'E:/Program '
   'Files/Python/Python37/Lib/site-packages/pygame/tests\\fixtures\\fonts\\u13079_PyGameMono-8.png',
   'DATA'),
  ('pygame\\examples\\aacircle.py',
   'E:/Program '
   'Files/Python/Python37/Lib/site-packages/pygame/examples\\aacircle.py',
   'DATA'),
  ('pygame\\examples\\aliens.py',
   'E:/Program '
   'Files/Python/Python37/Lib/site-packages/pygame/examples\\aliens.py',
   'DATA'),
  ('pygame\\examples\\arraydemo.py',
   'E:/Program '
   'Files/Python/Python37/Lib/site-packages/pygame/examples\\arraydemo.py',
   'DATA'),
  ('pygame\\examples\\audiocapture.py',
   'E:/Program '
   'Files/Python/Python37/Lib/site-packages/pygame/examples\\audiocapture.py',
   'DATA'),
  ('pygame\\examples\\blend_fill.py',
   'E:/Program '
   'Files/Python/Python37/Lib/site-packages/pygame/examples\\blend_fill.py',
   'DATA'),
  ('pygame\\examples\\blit_blends.py',
   'E:/Program '
   'Files/Python/Python37/Lib/site-packages/pygame/examples\\blit_blends.py',
   'DATA'),
  ('pygame\\examples\\camera.py',
   'E:/Program '
   'Files/Python/Python37/Lib/site-packages/pygame/examples\\camera.py',
   'DATA'),
  ('pygame\\examples\\chimp.py',
   'E:/Program '
   'Files/Python/Python37/Lib/site-packages/pygame/examples\\chimp.py',
   'DATA'),
  ('pygame\\examples\\cursors.py',
   'E:/Program '
   'Files/Python/Python37/Lib/site-packages/pygame/examples\\cursors.py',
   'DATA'),
  ('pygame\\examples\\dropevent.py',
   'E:/Program '
   'Files/Python/Python37/Lib/site-packages/pygame/examples\\dropevent.py',
   'DATA'),
  ('pygame\\examples\\eventlist.py',
   'E:/Program '
   'Files/Python/Python37/Lib/site-packages/pygame/examples\\eventlist.py',
   'DATA'),
  ('pygame\\examples\\fastevents.py',
   'E:/Program '
   'Files/Python/Python37/Lib/site-packages/pygame/examples\\fastevents.py',
   'DATA'),
  ('pygame\\examples\\fonty.py',
   'E:/Program '
   'Files/Python/Python37/Lib/site-packages/pygame/examples\\fonty.py',
   'DATA'),
  ('pygame\\examples\\freetype_misc.py',
   'E:/Program '
   'Files/Python/Python37/Lib/site-packages/pygame/examples\\freetype_misc.py',
   'DATA'),
  ('pygame\\examples\\glcube.py',
   'E:/Program '
   'Files/Python/Python37/Lib/site-packages/pygame/examples\\glcube.py',
   'DATA'),
  ('pygame\\examples\\headless_no_windows_needed.py',
   'E:/Program '
   'Files/Python/Python37/Lib/site-packages/pygame/examples\\headless_no_windows_needed.py',
   'DATA'),
  ('pygame\\examples\\liquid.py',
   'E:/Program '
   'Files/Python/Python37/Lib/site-packages/pygame/examples\\liquid.py',
   'DATA'),
  ('pygame\\examples\\mask.py',
   'E:/Program '
   'Files/Python/Python37/Lib/site-packages/pygame/examples\\mask.py',
   'DATA'),
  ('pygame\\examples\\midi.py',
   'E:/Program '
   'Files/Python/Python37/Lib/site-packages/pygame/examples\\midi.py',
   'DATA'),
  ('pygame\\examples\\moveit.py',
   'E:/Program '
   'Files/Python/Python37/Lib/site-packages/pygame/examples\\moveit.py',
   'DATA'),
  ('pygame\\examples\\oldalien.py',
   'E:/Program '
   'Files/Python/Python37/Lib/site-packages/pygame/examples\\oldalien.py',
   'DATA'),
  ('pygame\\examples\\overlay.py',
   'E:/Program '
   'Files/Python/Python37/Lib/site-packages/pygame/examples\\overlay.py',
   'DATA'),
  ('pygame\\examples\\pixelarray.py',
   'E:/Program '
   'Files/Python/Python37/Lib/site-packages/pygame/examples\\pixelarray.py',
   'DATA'),
  ('pygame\\examples\\playmus.py',
   'E:/Program '
   'Files/Python/Python37/Lib/site-packages/pygame/examples\\playmus.py',
   'DATA'),
  ('pygame\\examples\\prevent_display_stretching.py',
   'E:/Program '
   'Files/Python/Python37/Lib/site-packages/pygame/examples\\prevent_display_stretching.py',
   'DATA'),
  ('pygame\\examples\\scaletest.py',
   'E:/Program '
   'Files/Python/Python37/Lib/site-packages/pygame/examples\\scaletest.py',
   'DATA'),
  ('pygame\\examples\\scrap_clipboard.py',
   'E:/Program '
   'Files/Python/Python37/Lib/site-packages/pygame/examples\\scrap_clipboard.py',
   'DATA'),
  ('pygame\\examples\\scroll.py',
   'E:/Program '
   'Files/Python/Python37/Lib/site-packages/pygame/examples\\scroll.py',
   'DATA'),
  ('pygame\\examples\\sound.py',
   'E:/Program '
   'Files/Python/Python37/Lib/site-packages/pygame/examples\\sound.py',
   'DATA'),
  ('pygame\\examples\\sound_array_demos.py',
   'E:/Program '
   'Files/Python/Python37/Lib/site-packages/pygame/examples\\sound_array_demos.py',
   'DATA'),
  ('pygame\\examples\\stars.py',
   'E:/Program '
   'Files/Python/Python37/Lib/site-packages/pygame/examples\\stars.py',
   'DATA'),
  ('pygame\\examples\\testsprite.py',
   'E:/Program '
   'Files/Python/Python37/Lib/site-packages/pygame/examples\\testsprite.py',
   'DATA'),
  ('pygame\\examples\\textinput.py',
   'E:/Program '
   'Files/Python/Python37/Lib/site-packages/pygame/examples\\textinput.py',
   'DATA'),
  ('pygame\\examples\\vgrade.py',
   'E:/Program '
   'Files/Python/Python37/Lib/site-packages/pygame/examples\\vgrade.py',
   'DATA'),
  ('pygame\\examples\\video.py',
   'E:/Program '
   'Files/Python/Python37/Lib/site-packages/pygame/examples\\video.py',
   'DATA'),
  ('pygame\\examples\\__init__.py',
   'E:/Program '
   'Files/Python/Python37/Lib/site-packages/pygame/examples\\__init__.py',
   'DATA'),
  ('pygame\\examples\\__pycache__\\aacircle.cpython-37.pyc',
   'E:/Program '
   'Files/Python/Python37/Lib/site-packages/pygame/examples\\__pycache__\\aacircle.cpython-37.pyc',
   'DATA'),
  ('pygame\\examples\\__pycache__\\aliens.cpython-37.pyc',
   'E:/Program '
   'Files/Python/Python37/Lib/site-packages/pygame/examples\\__pycache__\\aliens.cpython-37.pyc',
   'DATA'),
  ('pygame\\examples\\__pycache__\\arraydemo.cpython-37.pyc',
   'E:/Program '
   'Files/Python/Python37/Lib/site-packages/pygame/examples\\__pycache__\\arraydemo.cpython-37.pyc',
   'DATA'),
  ('pygame\\examples\\__pycache__\\audiocapture.cpython-37.pyc',
   'E:/Program '
   'Files/Python/Python37/Lib/site-packages/pygame/examples\\__pycache__\\audiocapture.cpython-37.pyc',
   'DATA'),
  ('pygame\\examples\\__pycache__\\blend_fill.cpython-37.pyc',
   'E:/Program '
   'Files/Python/Python37/Lib/site-packages/pygame/examples\\__pycache__\\blend_fill.cpython-37.pyc',
   'DATA'),
  ('pygame\\examples\\__pycache__\\blit_blends.cpython-37.pyc',
   'E:/Program '
   'Files/Python/Python37/Lib/site-packages/pygame/examples\\__pycache__\\blit_blends.cpython-37.pyc',
   'DATA'),
  ('pygame\\examples\\__pycache__\\camera.cpython-37.pyc',
   'E:/Program '
   'Files/Python/Python37/Lib/site-packages/pygame/examples\\__pycache__\\camera.cpython-37.pyc',
   'DATA'),
  ('pygame\\examples\\__pycache__\\chimp.cpython-37.pyc',
   'E:/Program '
   'Files/Python/Python37/Lib/site-packages/pygame/examples\\__pycache__\\chimp.cpython-37.pyc',
   'DATA'),
  ('pygame\\examples\\__pycache__\\cursors.cpython-37.pyc',
   'E:/Program '
   'Files/Python/Python37/Lib/site-packages/pygame/examples\\__pycache__\\cursors.cpython-37.pyc',
   'DATA'),
  ('pygame\\examples\\__pycache__\\dropevent.cpython-37.pyc',
   'E:/Program '
   'Files/Python/Python37/Lib/site-packages/pygame/examples\\__pycache__\\dropevent.cpython-37.pyc',
   'DATA'),
  ('pygame\\examples\\__pycache__\\eventlist.cpython-37.pyc',
   'E:/Program '
   'Files/Python/Python37/Lib/site-packages/pygame/examples\\__pycache__\\eventlist.cpython-37.pyc',
   'DATA'),
  ('pygame\\examples\\__pycache__\\fastevents.cpython-37.pyc',
   'E:/Program '
   'Files/Python/Python37/Lib/site-packages/pygame/examples\\__pycache__\\fastevents.cpython-37.pyc',
   'DATA'),
  ('pygame\\examples\\__pycache__\\fonty.cpython-37.pyc',
   'E:/Program '
   'Files/Python/Python37/Lib/site-packages/pygame/examples\\__pycache__\\fonty.cpython-37.pyc',
   'DATA'),
  ('pygame\\examples\\__pycache__\\freetype_misc.cpython-37.pyc',
   'E:/Program '
   'Files/Python/Python37/Lib/site-packages/pygame/examples\\__pycache__\\freetype_misc.cpython-37.pyc',
   'DATA'),
  ('pygame\\examples\\__pycache__\\glcube.cpython-37.pyc',
   'E:/Program '
   'Files/Python/Python37/Lib/site-packages/pygame/examples\\__pycache__\\glcube.cpython-37.pyc',
   'DATA'),
  ('pygame\\examples\\__pycache__\\headless_no_windows_needed.cpython-37.pyc',
   'E:/Program '
   'Files/Python/Python37/Lib/site-packages/pygame/examples\\__pycache__\\headless_no_windows_needed.cpython-37.pyc',
   'DATA'),
  ('pygame\\examples\\__pycache__\\liquid.cpython-37.pyc',
   'E:/Program '
   'Files/Python/Python37/Lib/site-packages/pygame/examples\\__pycache__\\liquid.cpython-37.pyc',
   'DATA'),
  ('pygame\\examples\\__pycache__\\mask.cpython-37.pyc',
   'E:/Program '
   'Files/Python/Python37/Lib/site-packages/pygame/examples\\__pycache__\\mask.cpython-37.pyc',
   'DATA'),
  ('pygame\\examples\\__pycache__\\midi.cpython-37.pyc',
   'E:/Program '
   'Files/Python/Python37/Lib/site-packages/pygame/examples\\__pycache__\\midi.cpython-37.pyc',
   'DATA'),
  ('pygame\\examples\\__pycache__\\moveit.cpython-37.pyc',
   'E:/Program '
   'Files/Python/Python37/Lib/site-packages/pygame/examples\\__pycache__\\moveit.cpython-37.pyc',
   'DATA'),
  ('pygame\\examples\\__pycache__\\oldalien.cpython-37.pyc',
   'E:/Program '
   'Files/Python/Python37/Lib/site-packages/pygame/examples\\__pycache__\\oldalien.cpython-37.pyc',
   'DATA'),
  ('pygame\\examples\\__pycache__\\overlay.cpython-37.pyc',
   'E:/Program '
   'Files/Python/Python37/Lib/site-packages/pygame/examples\\__pycache__\\overlay.cpython-37.pyc',
   'DATA'),
  ('pygame\\examples\\__pycache__\\pixelarray.cpython-37.pyc',
   'E:/Program '
   'Files/Python/Python37/Lib/site-packages/pygame/examples\\__pycache__\\pixelarray.cpython-37.pyc',
   'DATA'),
  ('pygame\\examples\\__pycache__\\playmus.cpython-37.pyc',
   'E:/Program '
   'Files/Python/Python37/Lib/site-packages/pygame/examples\\__pycache__\\playmus.cpython-37.pyc',
   'DATA'),
  ('pygame\\examples\\__pycache__\\prevent_display_stretching.cpython-37.pyc',
   'E:/Program '
   'Files/Python/Python37/Lib/site-packages/pygame/examples\\__pycache__\\prevent_display_stretching.cpython-37.pyc',
   'DATA'),
  ('pygame\\examples\\__pycache__\\scaletest.cpython-37.pyc',
   'E:/Program '
   'Files/Python/Python37/Lib/site-packages/pygame/examples\\__pycache__\\scaletest.cpython-37.pyc',
   'DATA'),
  ('pygame\\examples\\__pycache__\\scrap_clipboard.cpython-37.pyc',
   'E:/Program '
   'Files/Python/Python37/Lib/site-packages/pygame/examples\\__pycache__\\scrap_clipboard.cpython-37.pyc',
   'DATA'),
  ('pygame\\examples\\__pycache__\\scroll.cpython-37.pyc',
   'E:/Program '
   'Files/Python/Python37/Lib/site-packages/pygame/examples\\__pycache__\\scroll.cpython-37.pyc',
   'DATA'),
  ('pygame\\examples\\__pycache__\\sound.cpython-37.pyc',
   'E:/Program '
   'Files/Python/Python37/Lib/site-packages/pygame/examples\\__pycache__\\sound.cpython-37.pyc',
   'DATA'),
  ('pygame\\examples\\__pycache__\\sound_array_demos.cpython-37.pyc',
   'E:/Program '
   'Files/Python/Python37/Lib/site-packages/pygame/examples\\__pycache__\\sound_array_demos.cpython-37.pyc',
   'DATA'),
  ('pygame\\examples\\__pycache__\\stars.cpython-37.pyc',
   'E:/Program '
   'Files/Python/Python37/Lib/site-packages/pygame/examples\\__pycache__\\stars.cpython-37.pyc',
   'DATA'),
  ('pygame\\examples\\__pycache__\\testsprite.cpython-37.pyc',
   'E:/Program '
   'Files/Python/Python37/Lib/site-packages/pygame/examples\\__pycache__\\testsprite.cpython-37.pyc',
   'DATA'),
  ('pygame\\examples\\__pycache__\\textinput.cpython-37.pyc',
   'E:/Program '
   'Files/Python/Python37/Lib/site-packages/pygame/examples\\__pycache__\\textinput.cpython-37.pyc',
   'DATA'),
  ('pygame\\examples\\__pycache__\\vgrade.cpython-37.pyc',
   'E:/Program '
   'Files/Python/Python37/Lib/site-packages/pygame/examples\\__pycache__\\vgrade.cpython-37.pyc',
   'DATA'),
  ('pygame\\examples\\__pycache__\\video.cpython-37.pyc',
   'E:/Program '
   'Files/Python/Python37/Lib/site-packages/pygame/examples\\__pycache__\\video.cpython-37.pyc',
   'DATA'),
  ('pygame\\examples\\__pycache__\\__init__.cpython-37.pyc',
   'E:/Program '
   'Files/Python/Python37/Lib/site-packages/pygame/examples\\__pycache__\\__init__.cpython-37.pyc',
   'DATA'),
  ('pygame\\examples\\macosx\\macfont.py',
   'E:/Program '
   'Files/Python/Python37/Lib/site-packages/pygame/examples\\macosx\\macfont.py',
   'DATA'),
  ('pygame\\examples\\macosx\\__pycache__\\macfont.cpython-37.pyc',
   'E:/Program '
   'Files/Python/Python37/Lib/site-packages/pygame/examples\\macosx\\__pycache__\\macfont.cpython-37.pyc',
   'DATA'),
  ('pygame\\examples\\macosx\\aliens_app_example\\aliens.py',
   'E:/Program '
   'Files/Python/Python37/Lib/site-packages/pygame/examples\\macosx\\aliens_app_example\\aliens.py',
   'DATA'),
  ('pygame\\examples\\macosx\\aliens_app_example\\README.txt',
   'E:/Program '
   'Files/Python/Python37/Lib/site-packages/pygame/examples\\macosx\\aliens_app_example\\README.txt',
   'DATA'),
  ('pygame\\examples\\macosx\\aliens_app_example\\setup.py',
   'E:/Program '
   'Files/Python/Python37/Lib/site-packages/pygame/examples\\macosx\\aliens_app_example\\setup.py',
   'DATA'),
  ('pygame\\examples\\macosx\\aliens_app_example\\__pycache__\\aliens.cpython-37.pyc',
   'E:/Program '
   'Files/Python/Python37/Lib/site-packages/pygame/examples\\macosx\\aliens_app_example\\__pycache__\\aliens.cpython-37.pyc',
   'DATA'),
  ('pygame\\examples\\macosx\\aliens_app_example\\__pycache__\\setup.cpython-37.pyc',
   'E:/Program '
   'Files/Python/Python37/Lib/site-packages/pygame/examples\\macosx\\aliens_app_example\\__pycache__\\setup.cpython-37.pyc',
   'DATA'),
  ('pygame\\examples\\macosx\\aliens_app_example\\English.lproj\\aliens.icns',
   'E:/Program '
   'Files/Python/Python37/Lib/site-packages/pygame/examples\\macosx\\aliens_app_example\\English.lproj\\aliens.icns',
   'DATA'),
  ('pygame\\examples\\macosx\\aliens_app_example\\English.lproj\\MainMenu.nib\\classes.nib',
   'E:/Program '
   'Files/Python/Python37/Lib/site-packages/pygame/examples\\macosx\\aliens_app_example\\English.lproj\\MainMenu.nib\\classes.nib',
   'DATA'),
  ('pygame\\examples\\macosx\\aliens_app_example\\English.lproj\\MainMenu.nib\\info.nib',
   'E:/Program '
   'Files/Python/Python37/Lib/site-packages/pygame/examples\\macosx\\aliens_app_example\\English.lproj\\MainMenu.nib\\info.nib',
   'DATA'),
  ('pygame\\examples\\macosx\\aliens_app_example\\English.lproj\\MainMenu.nib\\JavaCompiling.plist',
   'E:/Program '
   'Files/Python/Python37/Lib/site-packages/pygame/examples\\macosx\\aliens_app_example\\English.lproj\\MainMenu.nib\\JavaCompiling.plist',
   'DATA'),
  ('pygame\\examples\\macosx\\aliens_app_example\\English.lproj\\MainMenu.nib\\keyedobjects.nib',
   'E:/Program '
   'Files/Python/Python37/Lib/site-packages/pygame/examples\\macosx\\aliens_app_example\\English.lproj\\MainMenu.nib\\keyedobjects.nib',
   'DATA'),
  ('pygame\\examples\\macosx\\aliens_app_example\\English.lproj\\MainMenu.nib\\_MainMenu_EOArchive_English.java',
   'E:/Program '
   'Files/Python/Python37/Lib/site-packages/pygame/examples\\macosx\\aliens_app_example\\English.lproj\\MainMenu.nib\\_MainMenu_EOArchive_English.java',
   'DATA'),
  ('pygame\\examples\\data\\alien1.gif',
   'E:/Program '
   'Files/Python/Python37/Lib/site-packages/pygame/examples\\data\\alien1.gif',
   'DATA'),
  ('pygame\\examples\\data\\alien1.jpg',
   'E:/Program '
   'Files/Python/Python37/Lib/site-packages/pygame/examples\\data\\alien1.jpg',
   'DATA'),
  ('pygame\\examples\\data\\alien1.png',
   'E:/Program '
   'Files/Python/Python37/Lib/site-packages/pygame/examples\\data\\alien1.png',
   'DATA'),
  ('pygame\\examples\\data\\alien2.gif',
   'E:/Program '
   'Files/Python/Python37/Lib/site-packages/pygame/examples\\data\\alien2.gif',
   'DATA'),
  ('pygame\\examples\\data\\alien2.png',
   'E:/Program '
   'Files/Python/Python37/Lib/site-packages/pygame/examples\\data\\alien2.png',
   'DATA'),
  ('pygame\\examples\\data\\alien3.gif',
   'E:/Program '
   'Files/Python/Python37/Lib/site-packages/pygame/examples\\data\\alien3.gif',
   'DATA'),
  ('pygame\\examples\\data\\alien3.png',
   'E:/Program '
   'Files/Python/Python37/Lib/site-packages/pygame/examples\\data\\alien3.png',
   'DATA'),
  ('pygame\\examples\\data\\arraydemo.bmp',
   'E:/Program '
   'Files/Python/Python37/Lib/site-packages/pygame/examples\\data\\arraydemo.bmp',
   'DATA'),
  ('pygame\\examples\\data\\asprite.bmp',
   'E:/Program '
   'Files/Python/Python37/Lib/site-packages/pygame/examples\\data\\asprite.bmp',
   'DATA'),
  ('pygame\\examples\\data\\background.gif',
   'E:/Program '
   'Files/Python/Python37/Lib/site-packages/pygame/examples\\data\\background.gif',
   'DATA'),
  ('pygame\\examples\\data\\blue.mpg',
   'E:/Program '
   'Files/Python/Python37/Lib/site-packages/pygame/examples\\data\\blue.mpg',
   'DATA'),
  ('pygame\\examples\\data\\bomb.gif',
   'E:/Program '
   'Files/Python/Python37/Lib/site-packages/pygame/examples\\data\\bomb.gif',
   'DATA'),
  ('pygame\\examples\\data\\boom.wav',
   'E:/Program '
   'Files/Python/Python37/Lib/site-packages/pygame/examples\\data\\boom.wav',
   'DATA'),
  ('pygame\\examples\\data\\brick.png',
   'E:/Program '
   'Files/Python/Python37/Lib/site-packages/pygame/examples\\data\\brick.png',
   'DATA'),
  ('pygame\\examples\\data\\car_door.wav',
   'E:/Program '
   'Files/Python/Python37/Lib/site-packages/pygame/examples\\data\\car_door.wav',
   'DATA'),
  ('pygame\\examples\\data\\chimp.bmp',
   'E:/Program '
   'Files/Python/Python37/Lib/site-packages/pygame/examples\\data\\chimp.bmp',
   'DATA'),
  ('pygame\\examples\\data\\city.png',
   'E:/Program '
   'Files/Python/Python37/Lib/site-packages/pygame/examples\\data\\city.png',
   'DATA'),
  ('pygame\\examples\\data\\danger.gif',
   'E:/Program '
   'Files/Python/Python37/Lib/site-packages/pygame/examples\\data\\danger.gif',
   'DATA'),
  ('pygame\\examples\\data\\explosion1.gif',
   'E:/Program '
   'Files/Python/Python37/Lib/site-packages/pygame/examples\\data\\explosion1.gif',
   'DATA'),
  ('pygame\\examples\\data\\fist.bmp',
   'E:/Program '
   'Files/Python/Python37/Lib/site-packages/pygame/examples\\data\\fist.bmp',
   'DATA'),
  ('pygame\\examples\\data\\house_lo.mp3',
   'E:/Program '
   'Files/Python/Python37/Lib/site-packages/pygame/examples\\data\\house_lo.mp3',
   'DATA'),
  ('pygame\\examples\\data\\house_lo.ogg',
   'E:/Program '
   'Files/Python/Python37/Lib/site-packages/pygame/examples\\data\\house_lo.ogg',
   'DATA'),
  ('pygame\\examples\\data\\house_lo.wav',
   'E:/Program '
   'Files/Python/Python37/Lib/site-packages/pygame/examples\\data\\house_lo.wav',
   'DATA'),
  ('pygame\\examples\\data\\liquid.bmp',
   'E:/Program '
   'Files/Python/Python37/Lib/site-packages/pygame/examples\\data\\liquid.bmp',
   'DATA'),
  ('pygame\\examples\\data\\midikeys.png',
   'E:/Program '
   'Files/Python/Python37/Lib/site-packages/pygame/examples\\data\\midikeys.png',
   'DATA'),
  ('pygame\\examples\\data\\oldplayer.gif',
   'E:/Program '
   'Files/Python/Python37/Lib/site-packages/pygame/examples\\data\\oldplayer.gif',
   'DATA'),
  ('pygame\\examples\\data\\player1.gif',
   'E:/Program '
   'Files/Python/Python37/Lib/site-packages/pygame/examples\\data\\player1.gif',
   'DATA'),
  ('pygame\\examples\\data\\punch.wav',
   'E:/Program '
   'Files/Python/Python37/Lib/site-packages/pygame/examples\\data\\punch.wav',
   'DATA'),
  ('pygame\\examples\\data\\sans.ttf',
   'E:/Program '
   'Files/Python/Python37/Lib/site-packages/pygame/examples\\data\\sans.ttf',
   'DATA'),
  ('pygame\\examples\\data\\secosmic_lo.wav',
   'E:/Program '
   'Files/Python/Python37/Lib/site-packages/pygame/examples\\data\\secosmic_lo.wav',
   'DATA'),
  ('pygame\\examples\\data\\shot.gif',
   'E:/Program '
   'Files/Python/Python37/Lib/site-packages/pygame/examples\\data\\shot.gif',
   'DATA'),
  ('pygame\\examples\\data\\static.png',
   'E:/Program '
   'Files/Python/Python37/Lib/site-packages/pygame/examples\\data\\static.png',
   'DATA'),
  ('pygame\\examples\\data\\whiff.wav',
   'E:/Program '
   'Files/Python/Python37/Lib/site-packages/pygame/examples\\data\\whiff.wav',
   'DATA'),
  ('pygame\\examples\\data\\yuv_1.pgm',
   'E:/Program '
   'Files/Python/Python37/Lib/site-packages/pygame/examples\\data\\yuv_1.pgm',
   'DATA'),
  ('pygame\\docs\\logos.html',
   'E:/Program Files/Python/Python37/Lib/site-packages/pygame/docs\\logos.html',
   'DATA'),
  ('pygame\\docs\\pygame_logo.gif',
   'E:/Program '
   'Files/Python/Python37/Lib/site-packages/pygame/docs\\pygame_logo.gif',
   'DATA'),
  ('pygame\\docs\\pygame_powered.gif',
   'E:/Program '
   'Files/Python/Python37/Lib/site-packages/pygame/docs\\pygame_powered.gif',
   'DATA'),
  ('pygame\\docs\\pygame_small.gif',
   'E:/Program '
   'Files/Python/Python37/Lib/site-packages/pygame/docs\\pygame_small.gif',
   'DATA'),
  ('pygame\\docs\\pygame_tiny.gif',
   'E:/Program '
   'Files/Python/Python37/Lib/site-packages/pygame/docs\\pygame_tiny.gif',
   'DATA'),
  ('pygame\\docs\\__init__.py',
   'E:/Program '
   'Files/Python/Python37/Lib/site-packages/pygame/docs\\__init__.py',
   'DATA'),
  ('pygame\\docs\\__main__.py',
   'E:/Program '
   'Files/Python/Python37/Lib/site-packages/pygame/docs\\__main__.py',
   'DATA'),
  ('pygame\\docs\\__pycache__\\__init__.cpython-37.pyc',
   'E:/Program '
   'Files/Python/Python37/Lib/site-packages/pygame/docs\\__pycache__\\__init__.cpython-37.pyc',
   'DATA'),
  ('pygame\\docs\\__pycache__\\__main__.cpython-37.pyc',
   'E:/Program '
   'Files/Python/Python37/Lib/site-packages/pygame/docs\\__pycache__\\__main__.cpython-37.pyc',
   'DATA'),
  ('pygame\\docs\\ref\\docscomments.json',
   'E:/Program '
   'Files/Python/Python37/Lib/site-packages/pygame/docs\\ref\\docscomments.json',
   'DATA')])
