('C:\\Users\\Danangjoyoo\\Desktop\\expython\\Adzan\\build\\adzan1\\PYZ-00.pyz',
 [('ssl', 'e:\\program files\\python\\python37\\lib\\ssl.py', 'PYMODULE'),
  ('calendar',
   'e:\\program files\\python\\python37\\lib\\calendar.py',
   'PYMODULE'),
  ('argparse',
   'e:\\program files\\python\\python37\\lib\\argparse.py',
   'PYMODULE'),
  ('textwrap',
   'e:\\program files\\python\\python37\\lib\\textwrap.py',
   'PYMODULE'),
  ('copy', 'e:\\program files\\python\\python37\\lib\\copy.py', 'PYMODULE'),
  ('gettext',
   'e:\\program files\\python\\python37\\lib\\gettext.py',
   'PYMODULE'),
  ('struct', 'e:\\program files\\python\\python37\\lib\\struct.py', 'PYMODULE'),
  ('datetime',
   'e:\\program files\\python\\python37\\lib\\datetime.py',
   'PYMODULE'),
  ('_strptime',
   'e:\\program files\\python\\python37\\lib\\_strptime.py',
   'PYMODULE'),
  ('base64', 'e:\\program files\\python\\python37\\lib\\base64.py', 'PYMODULE'),
  ('getopt', 'e:\\program files\\python\\python37\\lib\\getopt.py', 'PYMODULE'),
  ('socket', 'e:\\program files\\python\\python37\\lib\\socket.py', 'PYMODULE'),
  ('selectors',
   'e:\\program files\\python\\python37\\lib\\selectors.py',
   'PYMODULE'),
  ('doctest',
   'e:\\program files\\python\\python37\\lib\\doctest.py',
   'PYMODULE'),
  ('unittest',
   'e:\\program files\\python\\python37\\lib\\unittest\\__init__.py',
   'PYMODULE'),
  ('ntpath', 'e:\\program files\\python\\python37\\lib\\ntpath.py', 'PYMODULE'),
  ('string', 'e:\\program files\\python\\python37\\lib\\string.py', 'PYMODULE'),
  ('genericpath',
   'e:\\program files\\python\\python37\\lib\\genericpath.py',
   'PYMODULE'),
  ('stat', 'e:\\program files\\python\\python37\\lib\\stat.py', 'PYMODULE'),
  ('unittest.signals',
   'e:\\program files\\python\\python37\\lib\\unittest\\signals.py',
   'PYMODULE'),
  ('signal', 'e:\\program files\\python\\python37\\lib\\signal.py', 'PYMODULE'),
  ('unittest.main',
   'e:\\program files\\python\\python37\\lib\\unittest\\main.py',
   'PYMODULE'),
  ('unittest.runner',
   'e:\\program files\\python\\python37\\lib\\unittest\\runner.py',
   'PYMODULE'),
  ('unittest.loader',
   'e:\\program files\\python\\python37\\lib\\unittest\\loader.py',
   'PYMODULE'),
  ('fnmatch',
   'e:\\program files\\python\\python37\\lib\\fnmatch.py',
   'PYMODULE'),
  ('posixpath',
   'e:\\program files\\python\\python37\\lib\\posixpath.py',
   'PYMODULE'),
  ('unittest.suite',
   'e:\\program files\\python\\python37\\lib\\unittest\\suite.py',
   'PYMODULE'),
  ('unittest.case',
   'e:\\program files\\python\\python37\\lib\\unittest\\case.py',
   'PYMODULE'),
  ('contextlib',
   'e:\\program files\\python\\python37\\lib\\contextlib.py',
   'PYMODULE'),
  ('pprint', 'e:\\program files\\python\\python37\\lib\\pprint.py', 'PYMODULE'),
  ('logging',
   'e:\\program files\\python\\python37\\lib\\logging\\__init__.py',
   'PYMODULE'),
  ('pickle', 'e:\\program files\\python\\python37\\lib\\pickle.py', 'PYMODULE'),
  ('_compat_pickle',
   'e:\\program files\\python\\python37\\lib\\_compat_pickle.py',
   'PYMODULE'),
  ('threading',
   'e:\\program files\\python\\python37\\lib\\threading.py',
   'PYMODULE'),
  ('_threading_local',
   'e:\\program files\\python\\python37\\lib\\_threading_local.py',
   'PYMODULE'),
  ('unittest.result',
   'e:\\program files\\python\\python37\\lib\\unittest\\result.py',
   'PYMODULE'),
  ('unittest.util',
   'e:\\program files\\python\\python37\\lib\\unittest\\util.py',
   'PYMODULE'),
  ('pdb', 'e:\\program files\\python\\python37\\lib\\pdb.py', 'PYMODULE'),
  ('pydoc', 'e:\\program files\\python\\python37\\lib\\pydoc.py', 'PYMODULE'),
  ('webbrowser',
   'e:\\program files\\python\\python37\\lib\\webbrowser.py',
   'PYMODULE'),
  ('shutil', 'e:\\program files\\python\\python37\\lib\\shutil.py', 'PYMODULE'),
  ('zipfile',
   'e:\\program files\\python\\python37\\lib\\zipfile.py',
   'PYMODULE'),
  ('py_compile',
   'e:\\program files\\python\\python37\\lib\\py_compile.py',
   'PYMODULE'),
  ('tarfile',
   'e:\\program files\\python\\python37\\lib\\tarfile.py',
   'PYMODULE'),
  ('gzip', 'e:\\program files\\python\\python37\\lib\\gzip.py', 'PYMODULE'),
  ('_compression',
   'e:\\program files\\python\\python37\\lib\\_compression.py',
   'PYMODULE'),
  ('lzma', 'e:\\program files\\python\\python37\\lib\\lzma.py', 'PYMODULE'),
  ('bz2', 'e:\\program files\\python\\python37\\lib\\bz2.py', 'PYMODULE'),
  ('email.message',
   'e:\\program files\\python\\python37\\lib\\email\\message.py',
   'PYMODULE'),
  ('email.policy',
   'e:\\program files\\python\\python37\\lib\\email\\policy.py',
   'PYMODULE'),
  ('email.contentmanager',
   'e:\\program files\\python\\python37\\lib\\email\\contentmanager.py',
   'PYMODULE'),
  ('email.quoprimime',
   'e:\\program files\\python\\python37\\lib\\email\\quoprimime.py',
   'PYMODULE'),
  ('email.headerregistry',
   'e:\\program files\\python\\python37\\lib\\email\\headerregistry.py',
   'PYMODULE'),
  ('email._header_value_parser',
   'e:\\program files\\python\\python37\\lib\\email\\_header_value_parser.py',
   'PYMODULE'),
  ('urllib',
   'e:\\program files\\python\\python37\\lib\\urllib\\__init__.py',
   'PYMODULE'),
  ('email.iterators',
   'e:\\program files\\python\\python37\\lib\\email\\iterators.py',
   'PYMODULE'),
  ('email.generator',
   'e:\\program files\\python\\python37\\lib\\email\\generator.py',
   'PYMODULE'),
  ('random', 'e:\\program files\\python\\python37\\lib\\random.py', 'PYMODULE'),
  ('bisect', 'e:\\program files\\python\\python37\\lib\\bisect.py', 'PYMODULE'),
  ('hashlib',
   'e:\\program files\\python\\python37\\lib\\hashlib.py',
   'PYMODULE'),
  ('email._encoded_words',
   'e:\\program files\\python\\python37\\lib\\email\\_encoded_words.py',
   'PYMODULE'),
  ('email.charset',
   'e:\\program files\\python\\python37\\lib\\email\\charset.py',
   'PYMODULE'),
  ('email.encoders',
   'e:\\program files\\python\\python37\\lib\\email\\encoders.py',
   'PYMODULE'),
  ('email.base64mime',
   'e:\\program files\\python\\python37\\lib\\email\\base64mime.py',
   'PYMODULE'),
  ('email._policybase',
   'e:\\program files\\python\\python37\\lib\\email\\_policybase.py',
   'PYMODULE'),
  ('email.header',
   'e:\\program files\\python\\python37\\lib\\email\\header.py',
   'PYMODULE'),
  ('email.errors',
   'e:\\program files\\python\\python37\\lib\\email\\errors.py',
   'PYMODULE'),
  ('email.utils',
   'e:\\program files\\python\\python37\\lib\\email\\utils.py',
   'PYMODULE'),
  ('email._parseaddr',
   'e:\\program files\\python\\python37\\lib\\email\\_parseaddr.py',
   'PYMODULE'),
  ('email',
   'e:\\program files\\python\\python37\\lib\\email\\__init__.py',
   'PYMODULE'),
  ('email.parser',
   'e:\\program files\\python\\python37\\lib\\email\\parser.py',
   'PYMODULE'),
  ('email.feedparser',
   'e:\\program files\\python\\python37\\lib\\email\\feedparser.py',
   'PYMODULE'),
  ('quopri', 'e:\\program files\\python\\python37\\lib\\quopri.py', 'PYMODULE'),
  ('uu', 'e:\\program files\\python\\python37\\lib\\uu.py', 'PYMODULE'),
  ('optparse',
   'e:\\program files\\python\\python37\\lib\\optparse.py',
   'PYMODULE'),
  ('http.server',
   'e:\\program files\\python\\python37\\lib\\http\\server.py',
   'PYMODULE'),
  ('http',
   'e:\\program files\\python\\python37\\lib\\http\\__init__.py',
   'PYMODULE'),
  ('socketserver',
   'e:\\program files\\python\\python37\\lib\\socketserver.py',
   'PYMODULE'),
  ('mimetypes',
   'e:\\program files\\python\\python37\\lib\\mimetypes.py',
   'PYMODULE'),
  ('http.client',
   'e:\\program files\\python\\python37\\lib\\http\\client.py',
   'PYMODULE'),
  ('html',
   'e:\\program files\\python\\python37\\lib\\html\\__init__.py',
   'PYMODULE'),
  ('html.entities',
   'e:\\program files\\python\\python37\\lib\\html\\entities.py',
   'PYMODULE'),
  ('pydoc_data.topics',
   'e:\\program files\\python\\python37\\lib\\pydoc_data\\topics.py',
   'PYMODULE'),
  ('pydoc_data',
   'e:\\program files\\python\\python37\\lib\\pydoc_data\\__init__.py',
   'PYMODULE'),
  ('tty', 'e:\\program files\\python\\python37\\lib\\tty.py', 'PYMODULE'),
  ('subprocess',
   'e:\\program files\\python\\python37\\lib\\subprocess.py',
   'PYMODULE'),
  ('tempfile',
   'e:\\program files\\python\\python37\\lib\\tempfile.py',
   'PYMODULE'),
  ('urllib.parse',
   'e:\\program files\\python\\python37\\lib\\urllib\\parse.py',
   'PYMODULE'),
  ('tokenize',
   'e:\\program files\\python\\python37\\lib\\tokenize.py',
   'PYMODULE'),
  ('token', 'e:\\program files\\python\\python37\\lib\\token.py', 'PYMODULE'),
  ('sysconfig',
   'e:\\program files\\python\\python37\\lib\\sysconfig.py',
   'PYMODULE'),
  ('_osx_support',
   'e:\\program files\\python\\python37\\lib\\_osx_support.py',
   'PYMODULE'),
  ('distutils.log',
   'e:\\program files\\python\\python37\\lib\\distutils\\log.py',
   'PYMODULE'),
  ('distutils',
   'e:\\program files\\python\\python37\\lib\\distutils\\__init__.py',
   'PYMODULE'),
  ('platform',
   'e:\\program files\\python\\python37\\lib\\platform.py',
   'PYMODULE'),
  ('plistlib',
   'e:\\program files\\python\\python37\\lib\\plistlib.py',
   'PYMODULE'),
  ('xml.parsers.expat',
   'e:\\program files\\python\\python37\\lib\\xml\\parsers\\expat.py',
   'PYMODULE'),
  ('xml.parsers',
   'e:\\program files\\python\\python37\\lib\\xml\\parsers\\__init__.py',
   'PYMODULE'),
  ('xml',
   'e:\\program files\\python\\python37\\lib\\xml\\__init__.py',
   'PYMODULE'),
  ('xml.sax.expatreader',
   'e:\\program files\\python\\python37\\lib\\xml\\sax\\expatreader.py',
   'PYMODULE'),
  ('xml.sax.saxutils',
   'e:\\program files\\python\\python37\\lib\\xml\\sax\\saxutils.py',
   'PYMODULE'),
  ('urllib.request',
   'e:\\program files\\python\\python37\\lib\\urllib\\request.py',
   'PYMODULE'),
  ('getpass',
   'e:\\program files\\python\\python37\\lib\\getpass.py',
   'PYMODULE'),
  ('nturl2path',
   'e:\\program files\\python\\python37\\lib\\nturl2path.py',
   'PYMODULE'),
  ('ftplib', 'e:\\program files\\python\\python37\\lib\\ftplib.py', 'PYMODULE'),
  ('netrc', 'e:\\program files\\python\\python37\\lib\\netrc.py', 'PYMODULE'),
  ('http.cookiejar',
   'e:\\program files\\python\\python37\\lib\\http\\cookiejar.py',
   'PYMODULE'),
  ('urllib.response',
   'e:\\program files\\python\\python37\\lib\\urllib\\response.py',
   'PYMODULE'),
  ('urllib.error',
   'e:\\program files\\python\\python37\\lib\\urllib\\error.py',
   'PYMODULE'),
  ('xml.sax',
   'e:\\program files\\python\\python37\\lib\\xml\\sax\\__init__.py',
   'PYMODULE'),
  ('xml.sax.handler',
   'e:\\program files\\python\\python37\\lib\\xml\\sax\\handler.py',
   'PYMODULE'),
  ('xml.sax._exceptions',
   'e:\\program files\\python\\python37\\lib\\xml\\sax\\_exceptions.py',
   'PYMODULE'),
  ('xml.sax.xmlreader',
   'e:\\program files\\python\\python37\\lib\\xml\\sax\\xmlreader.py',
   'PYMODULE'),
  ('pkgutil',
   'e:\\program files\\python\\python37\\lib\\pkgutil.py',
   'PYMODULE'),
  ('importlib',
   'e:\\program files\\python\\python37\\lib\\importlib\\__init__.py',
   'PYMODULE'),
  ('importlib.abc',
   'e:\\program files\\python\\python37\\lib\\importlib\\abc.py',
   'PYMODULE'),
  ('importlib.util',
   'e:\\program files\\python\\python37\\lib\\importlib\\util.py',
   'PYMODULE'),
  ('importlib.machinery',
   'e:\\program files\\python\\python37\\lib\\importlib\\machinery.py',
   'PYMODULE'),
  ('importlib._bootstrap_external',
   'e:\\program '
   'files\\python\\python37\\lib\\importlib\\_bootstrap_external.py',
   'PYMODULE'),
  ('importlib._bootstrap',
   'e:\\program files\\python\\python37\\lib\\importlib\\_bootstrap.py',
   'PYMODULE'),
  ('runpy', 'e:\\program files\\python\\python37\\lib\\runpy.py', 'PYMODULE'),
  ('shlex', 'e:\\program files\\python\\python37\\lib\\shlex.py', 'PYMODULE'),
  ('glob', 'e:\\program files\\python\\python37\\lib\\glob.py', 'PYMODULE'),
  ('code', 'e:\\program files\\python\\python37\\lib\\code.py', 'PYMODULE'),
  ('codeop', 'e:\\program files\\python\\python37\\lib\\codeop.py', 'PYMODULE'),
  ('dis', 'e:\\program files\\python\\python37\\lib\\dis.py', 'PYMODULE'),
  ('opcode', 'e:\\program files\\python\\python37\\lib\\opcode.py', 'PYMODULE'),
  ('bdb', 'e:\\program files\\python\\python37\\lib\\bdb.py', 'PYMODULE'),
  ('cmd', 'e:\\program files\\python\\python37\\lib\\cmd.py', 'PYMODULE'),
  ('inspect',
   'e:\\program files\\python\\python37\\lib\\inspect.py',
   'PYMODULE'),
  ('ast', 'e:\\program files\\python\\python37\\lib\\ast.py', 'PYMODULE'),
  ('difflib',
   'e:\\program files\\python\\python37\\lib\\difflib.py',
   'PYMODULE'),
  ('__future__',
   'e:\\program files\\python\\python37\\lib\\__future__.py',
   'PYMODULE'),
  ('typing', 'e:\\program files\\python\\python37\\lib\\typing.py', 'PYMODULE'),
  ('tracemalloc',
   'e:\\program files\\python\\python37\\lib\\tracemalloc.py',
   'PYMODULE'),
  ('stringprep',
   'e:\\program files\\python\\python37\\lib\\stringprep.py',
   'PYMODULE'),
  ('_py_abc',
   'e:\\program files\\python\\python37\\lib\\_py_abc.py',
   'PYMODULE'),
  ('os', 'e:\\program files\\python\\python37\\lib\\os.py', 'PYMODULE'),
  ('tkinter',
   'e:\\program files\\python\\python37\\lib\\tkinter\\__init__.py',
   'PYMODULE'),
  ('tkinter.constants',
   'e:\\program files\\python\\python37\\lib\\tkinter\\constants.py',
   'PYMODULE'),
  ('json',
   'e:\\program files\\python\\python37\\lib\\json\\__init__.py',
   'PYMODULE'),
  ('json.encoder',
   'e:\\program files\\python\\python37\\lib\\json\\encoder.py',
   'PYMODULE'),
  ('json.decoder',
   'e:\\program files\\python\\python37\\lib\\json\\decoder.py',
   'PYMODULE'),
  ('json.scanner',
   'e:\\program files\\python\\python37\\lib\\json\\scanner.py',
   'PYMODULE'),
  ('requests',
   'e:\\program '
   'files\\python\\python37\\lib\\site-packages\\requests\\__init__.py',
   'PYMODULE'),
  ('requests.status_codes',
   'e:\\program '
   'files\\python\\python37\\lib\\site-packages\\requests\\status_codes.py',
   'PYMODULE'),
  ('requests.structures',
   'e:\\program '
   'files\\python\\python37\\lib\\site-packages\\requests\\structures.py',
   'PYMODULE'),
  ('requests.compat',
   'e:\\program '
   'files\\python\\python37\\lib\\site-packages\\requests\\compat.py',
   'PYMODULE'),
  ('http.cookies',
   'e:\\program files\\python\\python37\\lib\\http\\cookies.py',
   'PYMODULE'),
  ('requests.api',
   'e:\\program files\\python\\python37\\lib\\site-packages\\requests\\api.py',
   'PYMODULE'),
  ('requests.sessions',
   'e:\\program '
   'files\\python\\python37\\lib\\site-packages\\requests\\sessions.py',
   'PYMODULE'),
  ('requests.adapters',
   'e:\\program '
   'files\\python\\python37\\lib\\site-packages\\requests\\adapters.py',
   'PYMODULE'),
  ('urllib3.contrib.socks',
   'e:\\program '
   'files\\python\\python37\\lib\\site-packages\\urllib3\\contrib\\socks.py',
   'PYMODULE'),
  ('urllib3.util.url',
   'e:\\program '
   'files\\python\\python37\\lib\\site-packages\\urllib3\\util\\url.py',
   'PYMODULE'),
  ('idna',
   'e:\\program files\\python\\python37\\lib\\site-packages\\idna\\__init__.py',
   'PYMODULE'),
  ('idna.core',
   'e:\\program files\\python\\python37\\lib\\site-packages\\idna\\core.py',
   'PYMODULE'),
  ('idna.uts46data',
   'e:\\program '
   'files\\python\\python37\\lib\\site-packages\\idna\\uts46data.py',
   'PYMODULE'),
  ('idna.intranges',
   'e:\\program '
   'files\\python\\python37\\lib\\site-packages\\idna\\intranges.py',
   'PYMODULE'),
  ('idna.idnadata',
   'e:\\program files\\python\\python37\\lib\\site-packages\\idna\\idnadata.py',
   'PYMODULE'),
  ('idna.package_data',
   'e:\\program '
   'files\\python\\python37\\lib\\site-packages\\idna\\package_data.py',
   'PYMODULE'),
  ('urllib3.packages.six',
   'e:\\program '
   'files\\python\\python37\\lib\\site-packages\\urllib3\\packages\\six.py',
   'PYMODULE'),
  ('urllib3.packages',
   'e:\\program '
   'files\\python\\python37\\lib\\site-packages\\urllib3\\packages\\__init__.py',
   'PYMODULE'),
  ('urllib3.packages.ssl_match_hostname',
   'e:\\program '
   'files\\python\\python37\\lib\\site-packages\\urllib3\\packages\\ssl_match_hostname\\__init__.py',
   'PYMODULE'),
  ('urllib3.packages.ssl_match_hostname._implementation',
   'e:\\program '
   'files\\python\\python37\\lib\\site-packages\\urllib3\\packages\\ssl_match_hostname\\_implementation.py',
   'PYMODULE'),
  ('ipaddress',
   'e:\\program files\\python\\python37\\lib\\ipaddress.py',
   'PYMODULE'),
  ('urllib3.connectionpool',
   'e:\\program '
   'files\\python\\python37\\lib\\site-packages\\urllib3\\connectionpool.py',
   'PYMODULE'),
  ('urllib3.util.queue',
   'e:\\program '
   'files\\python\\python37\\lib\\site-packages\\urllib3\\util\\queue.py',
   'PYMODULE'),
  ('urllib3.util.timeout',
   'e:\\program '
   'files\\python\\python37\\lib\\site-packages\\urllib3\\util\\timeout.py',
   'PYMODULE'),
  ('urllib3.util.response',
   'e:\\program '
   'files\\python\\python37\\lib\\site-packages\\urllib3\\util\\response.py',
   'PYMODULE'),
  ('urllib3.util.request',
   'e:\\program '
   'files\\python\\python37\\lib\\site-packages\\urllib3\\util\\request.py',
   'PYMODULE'),
  ('urllib3.util.connection',
   'e:\\program '
   'files\\python\\python37\\lib\\site-packages\\urllib3\\util\\connection.py',
   'PYMODULE'),
  ('urllib3.contrib._appengine_environ',
   'e:\\program '
   'files\\python\\python37\\lib\\site-packages\\urllib3\\contrib\\_appengine_environ.py',
   'PYMODULE'),
  ('urllib3.util.wait',
   'e:\\program '
   'files\\python\\python37\\lib\\site-packages\\urllib3\\util\\wait.py',
   'PYMODULE'),
  ('urllib3.request',
   'e:\\program '
   'files\\python\\python37\\lib\\site-packages\\urllib3\\request.py',
   'PYMODULE'),
  ('urllib3.filepost',
   'e:\\program '
   'files\\python\\python37\\lib\\site-packages\\urllib3\\filepost.py',
   'PYMODULE'),
  ('urllib3.fields',
   'e:\\program '
   'files\\python\\python37\\lib\\site-packages\\urllib3\\fields.py',
   'PYMODULE'),
  ('queue', 'e:\\program files\\python\\python37\\lib\\queue.py', 'PYMODULE'),
  ('urllib3.connection',
   'e:\\program '
   'files\\python\\python37\\lib\\site-packages\\urllib3\\connection.py',
   'PYMODULE'),
  ('urllib3._collections',
   'e:\\program '
   'files\\python\\python37\\lib\\site-packages\\urllib3\\_collections.py',
   'PYMODULE'),
  ('urllib3.util.ssl_',
   'e:\\program '
   'files\\python\\python37\\lib\\site-packages\\urllib3\\util\\ssl_.py',
   'PYMODULE'),
  ('hmac', 'e:\\program files\\python\\python37\\lib\\hmac.py', 'PYMODULE'),
  ('urllib3.util.retry',
   'e:\\program '
   'files\\python\\python37\\lib\\site-packages\\urllib3\\util\\retry.py',
   'PYMODULE'),
  ('urllib3.util',
   'e:\\program '
   'files\\python\\python37\\lib\\site-packages\\urllib3\\util\\__init__.py',
   'PYMODULE'),
  ('urllib3.response',
   'e:\\program '
   'files\\python\\python37\\lib\\site-packages\\urllib3\\response.py',
   'PYMODULE'),
  ('urllib3.poolmanager',
   'e:\\program '
   'files\\python\\python37\\lib\\site-packages\\urllib3\\poolmanager.py',
   'PYMODULE'),
  ('requests._internal_utils',
   'e:\\program '
   'files\\python\\python37\\lib\\site-packages\\requests\\_internal_utils.py',
   'PYMODULE'),
  ('requests.hooks',
   'e:\\program '
   'files\\python\\python37\\lib\\site-packages\\requests\\hooks.py',
   'PYMODULE'),
  ('requests.cookies',
   'e:\\program '
   'files\\python\\python37\\lib\\site-packages\\requests\\cookies.py',
   'PYMODULE'),
  ('dummy_threading',
   'e:\\program files\\python\\python37\\lib\\dummy_threading.py',
   'PYMODULE'),
  ('_dummy_thread',
   'e:\\program files\\python\\python37\\lib\\_dummy_thread.py',
   'PYMODULE'),
  ('requests.auth',
   'e:\\program files\\python\\python37\\lib\\site-packages\\requests\\auth.py',
   'PYMODULE'),
  ('requests.models',
   'e:\\program '
   'files\\python\\python37\\lib\\site-packages\\requests\\models.py',
   'PYMODULE'),
  ('requests.packages',
   'e:\\program '
   'files\\python\\python37\\lib\\site-packages\\requests\\packages.py',
   'PYMODULE'),
  ('requests.utils',
   'e:\\program '
   'files\\python\\python37\\lib\\site-packages\\requests\\utils.py',
   'PYMODULE'),
  ('requests.certs',
   'e:\\program '
   'files\\python\\python37\\lib\\site-packages\\requests\\certs.py',
   'PYMODULE'),
  ('certifi',
   'e:\\program '
   'files\\python\\python37\\lib\\site-packages\\certifi\\__init__.py',
   'PYMODULE'),
  ('certifi.core',
   'e:\\program files\\python\\python37\\lib\\site-packages\\certifi\\core.py',
   'PYMODULE'),
  ('importlib.resources',
   'e:\\program files\\python\\python37\\lib\\importlib\\resources.py',
   'PYMODULE'),
  ('pathlib',
   'e:\\program files\\python\\python37\\lib\\pathlib.py',
   'PYMODULE'),
  ('requests.__version__',
   'e:\\program '
   'files\\python\\python37\\lib\\site-packages\\requests\\__version__.py',
   'PYMODULE'),
  ('urllib3.exceptions',
   'e:\\program '
   'files\\python\\python37\\lib\\site-packages\\urllib3\\exceptions.py',
   'PYMODULE'),
  ('urllib3.contrib.pyopenssl',
   'e:\\program '
   'files\\python\\python37\\lib\\site-packages\\urllib3\\contrib\\pyopenssl.py',
   'PYMODULE'),
  ('urllib3.packages.backports.makefile',
   'e:\\program '
   'files\\python\\python37\\lib\\site-packages\\urllib3\\packages\\backports\\makefile.py',
   'PYMODULE'),
  ('urllib3.packages.backports',
   'e:\\program '
   'files\\python\\python37\\lib\\site-packages\\urllib3\\packages\\backports\\__init__.py',
   'PYMODULE'),
  ('urllib3.contrib',
   'e:\\program '
   'files\\python\\python37\\lib\\site-packages\\urllib3\\contrib\\__init__.py',
   'PYMODULE'),
  ('requests.exceptions',
   'e:\\program '
   'files\\python\\python37\\lib\\site-packages\\requests\\exceptions.py',
   'PYMODULE'),
  ('chardet',
   'e:\\program '
   'files\\python\\python37\\lib\\site-packages\\chardet\\__init__.py',
   'PYMODULE'),
  ('chardet.version',
   'e:\\program '
   'files\\python\\python37\\lib\\site-packages\\chardet\\version.py',
   'PYMODULE'),
  ('chardet.universaldetector',
   'e:\\program '
   'files\\python\\python37\\lib\\site-packages\\chardet\\universaldetector.py',
   'PYMODULE'),
  ('chardet.sbcsgroupprober',
   'e:\\program '
   'files\\python\\python37\\lib\\site-packages\\chardet\\sbcsgroupprober.py',
   'PYMODULE'),
  ('chardet.langturkishmodel',
   'e:\\program '
   'files\\python\\python37\\lib\\site-packages\\chardet\\langturkishmodel.py',
   'PYMODULE'),
  ('chardet.hebrewprober',
   'e:\\program '
   'files\\python\\python37\\lib\\site-packages\\chardet\\hebrewprober.py',
   'PYMODULE'),
  ('chardet.charsetprober',
   'e:\\program '
   'files\\python\\python37\\lib\\site-packages\\chardet\\charsetprober.py',
   'PYMODULE'),
  ('chardet.langhebrewmodel',
   'e:\\program '
   'files\\python\\python37\\lib\\site-packages\\chardet\\langhebrewmodel.py',
   'PYMODULE'),
  ('chardet.langthaimodel',
   'e:\\program '
   'files\\python\\python37\\lib\\site-packages\\chardet\\langthaimodel.py',
   'PYMODULE'),
  ('chardet.langbulgarianmodel',
   'e:\\program '
   'files\\python\\python37\\lib\\site-packages\\chardet\\langbulgarianmodel.py',
   'PYMODULE'),
  ('chardet.langgreekmodel',
   'e:\\program '
   'files\\python\\python37\\lib\\site-packages\\chardet\\langgreekmodel.py',
   'PYMODULE'),
  ('chardet.langcyrillicmodel',
   'e:\\program '
   'files\\python\\python37\\lib\\site-packages\\chardet\\langcyrillicmodel.py',
   'PYMODULE'),
  ('chardet.sbcharsetprober',
   'e:\\program '
   'files\\python\\python37\\lib\\site-packages\\chardet\\sbcharsetprober.py',
   'PYMODULE'),
  ('chardet.mbcsgroupprober',
   'e:\\program '
   'files\\python\\python37\\lib\\site-packages\\chardet\\mbcsgroupprober.py',
   'PYMODULE'),
  ('chardet.euctwprober',
   'e:\\program '
   'files\\python\\python37\\lib\\site-packages\\chardet\\euctwprober.py',
   'PYMODULE'),
  ('chardet.mbcssm',
   'e:\\program '
   'files\\python\\python37\\lib\\site-packages\\chardet\\mbcssm.py',
   'PYMODULE'),
  ('chardet.chardistribution',
   'e:\\program '
   'files\\python\\python37\\lib\\site-packages\\chardet\\chardistribution.py',
   'PYMODULE'),
  ('chardet.jisfreq',
   'e:\\program '
   'files\\python\\python37\\lib\\site-packages\\chardet\\jisfreq.py',
   'PYMODULE'),
  ('chardet.big5freq',
   'e:\\program '
   'files\\python\\python37\\lib\\site-packages\\chardet\\big5freq.py',
   'PYMODULE'),
  ('chardet.gb2312freq',
   'e:\\program '
   'files\\python\\python37\\lib\\site-packages\\chardet\\gb2312freq.py',
   'PYMODULE'),
  ('chardet.euckrfreq',
   'e:\\program '
   'files\\python\\python37\\lib\\site-packages\\chardet\\euckrfreq.py',
   'PYMODULE'),
  ('chardet.euctwfreq',
   'e:\\program '
   'files\\python\\python37\\lib\\site-packages\\chardet\\euctwfreq.py',
   'PYMODULE'),
  ('chardet.codingstatemachine',
   'e:\\program '
   'files\\python\\python37\\lib\\site-packages\\chardet\\codingstatemachine.py',
   'PYMODULE'),
  ('chardet.mbcharsetprober',
   'e:\\program '
   'files\\python\\python37\\lib\\site-packages\\chardet\\mbcharsetprober.py',
   'PYMODULE'),
  ('chardet.big5prober',
   'e:\\program '
   'files\\python\\python37\\lib\\site-packages\\chardet\\big5prober.py',
   'PYMODULE'),
  ('chardet.cp949prober',
   'e:\\program '
   'files\\python\\python37\\lib\\site-packages\\chardet\\cp949prober.py',
   'PYMODULE'),
  ('chardet.euckrprober',
   'e:\\program '
   'files\\python\\python37\\lib\\site-packages\\chardet\\euckrprober.py',
   'PYMODULE'),
  ('chardet.gb2312prober',
   'e:\\program '
   'files\\python\\python37\\lib\\site-packages\\chardet\\gb2312prober.py',
   'PYMODULE'),
  ('chardet.eucjpprober',
   'e:\\program '
   'files\\python\\python37\\lib\\site-packages\\chardet\\eucjpprober.py',
   'PYMODULE'),
  ('chardet.jpcntx',
   'e:\\program '
   'files\\python\\python37\\lib\\site-packages\\chardet\\jpcntx.py',
   'PYMODULE'),
  ('chardet.sjisprober',
   'e:\\program '
   'files\\python\\python37\\lib\\site-packages\\chardet\\sjisprober.py',
   'PYMODULE'),
  ('chardet.utf8prober',
   'e:\\program '
   'files\\python\\python37\\lib\\site-packages\\chardet\\utf8prober.py',
   'PYMODULE'),
  ('chardet.latin1prober',
   'e:\\program '
   'files\\python\\python37\\lib\\site-packages\\chardet\\latin1prober.py',
   'PYMODULE'),
  ('chardet.escprober',
   'e:\\program '
   'files\\python\\python37\\lib\\site-packages\\chardet\\escprober.py',
   'PYMODULE'),
  ('chardet.escsm',
   'e:\\program files\\python\\python37\\lib\\site-packages\\chardet\\escsm.py',
   'PYMODULE'),
  ('chardet.enums',
   'e:\\program files\\python\\python37\\lib\\site-packages\\chardet\\enums.py',
   'PYMODULE'),
  ('chardet.charsetgroupprober',
   'e:\\program '
   'files\\python\\python37\\lib\\site-packages\\chardet\\charsetgroupprober.py',
   'PYMODULE'),
  ('chardet.compat',
   'e:\\program '
   'files\\python\\python37\\lib\\site-packages\\chardet\\compat.py',
   'PYMODULE'),
  ('urllib3',
   'e:\\program '
   'files\\python\\python37\\lib\\site-packages\\urllib3\\__init__.py',
   'PYMODULE'),
  ('urllib3._version',
   'e:\\program '
   'files\\python\\python37\\lib\\site-packages\\urllib3\\_version.py',
   'PYMODULE')])
