('E:/Program Files/Python/Python37/Lib/xml/',
 'xml',
 [],
 'DATA',
 [('xml\\__init__.py',
   'E:/Program Files/Python/Python37/Lib/xml/__init__.py',
   'DATA'),
  ('xml\\__init__.pyo',
   'E:/Program Files/Python/Python37/Lib/xml/__init__.pyo',
   'DATA'),
  ('xml\\__pycache__\\__init__.cpython-37.opt-1.pyc',
   'E:/Program '
   'Files/Python/Python37/Lib/xml/__pycache__\\__init__.cpython-37.opt-1.pyc',
   'DATA'),
  ('xml\\__pycache__\\__init__.cpython-37.opt-2.pyc',
   'E:/Program '
   'Files/Python/Python37/Lib/xml/__pycache__\\__init__.cpython-37.opt-2.pyc',
   'DATA'),
  ('xml\\__pycache__\\__init__.cpython-37.pyc',
   'E:/Program '
   'Files/Python/Python37/Lib/xml/__pycache__\\__init__.cpython-37.pyc',
   'DATA'),
  ('xml\\sax\\expatreader.py',
   'E:/Program Files/Python/Python37/Lib/xml/sax\\expatreader.py',
   'DATA'),
  ('xml\\sax\\expatreader.pyo',
   'E:/Program Files/Python/Python37/Lib/xml/sax\\expatreader.pyo',
   'DATA'),
  ('xml\\sax\\handler.py',
   'E:/Program Files/Python/Python37/Lib/xml/sax\\handler.py',
   'DATA'),
  ('xml\\sax\\handler.pyo',
   'E:/Program Files/Python/Python37/Lib/xml/sax\\handler.pyo',
   'DATA'),
  ('xml\\sax\\saxutils.py',
   'E:/Program Files/Python/Python37/Lib/xml/sax\\saxutils.py',
   'DATA'),
  ('xml\\sax\\saxutils.pyo',
   'E:/Program Files/Python/Python37/Lib/xml/sax\\saxutils.pyo',
   'DATA'),
  ('xml\\sax\\xmlreader.py',
   'E:/Program Files/Python/Python37/Lib/xml/sax\\xmlreader.py',
   'DATA'),
  ('xml\\sax\\xmlreader.pyo',
   'E:/Program Files/Python/Python37/Lib/xml/sax\\xmlreader.pyo',
   'DATA'),
  ('xml\\sax\\_exceptions.py',
   'E:/Program Files/Python/Python37/Lib/xml/sax\\_exceptions.py',
   'DATA'),
  ('xml\\sax\\_exceptions.pyo',
   'E:/Program Files/Python/Python37/Lib/xml/sax\\_exceptions.pyo',
   'DATA'),
  ('xml\\sax\\__init__.py',
   'E:/Program Files/Python/Python37/Lib/xml/sax\\__init__.py',
   'DATA'),
  ('xml\\sax\\__init__.pyo',
   'E:/Program Files/Python/Python37/Lib/xml/sax\\__init__.pyo',
   'DATA'),
  ('xml\\sax\\__pycache__\\expatreader.cpython-37.opt-1.pyc',
   'E:/Program '
   'Files/Python/Python37/Lib/xml/sax\\__pycache__\\expatreader.cpython-37.opt-1.pyc',
   'DATA'),
  ('xml\\sax\\__pycache__\\expatreader.cpython-37.opt-2.pyc',
   'E:/Program '
   'Files/Python/Python37/Lib/xml/sax\\__pycache__\\expatreader.cpython-37.opt-2.pyc',
   'DATA'),
  ('xml\\sax\\__pycache__\\expatreader.cpython-37.pyc',
   'E:/Program '
   'Files/Python/Python37/Lib/xml/sax\\__pycache__\\expatreader.cpython-37.pyc',
   'DATA'),
  ('xml\\sax\\__pycache__\\handler.cpython-37.opt-1.pyc',
   'E:/Program '
   'Files/Python/Python37/Lib/xml/sax\\__pycache__\\handler.cpython-37.opt-1.pyc',
   'DATA'),
  ('xml\\sax\\__pycache__\\handler.cpython-37.opt-2.pyc',
   'E:/Program '
   'Files/Python/Python37/Lib/xml/sax\\__pycache__\\handler.cpython-37.opt-2.pyc',
   'DATA'),
  ('xml\\sax\\__pycache__\\handler.cpython-37.pyc',
   'E:/Program '
   'Files/Python/Python37/Lib/xml/sax\\__pycache__\\handler.cpython-37.pyc',
   'DATA'),
  ('xml\\sax\\__pycache__\\saxutils.cpython-37.opt-1.pyc',
   'E:/Program '
   'Files/Python/Python37/Lib/xml/sax\\__pycache__\\saxutils.cpython-37.opt-1.pyc',
   'DATA'),
  ('xml\\sax\\__pycache__\\saxutils.cpython-37.opt-2.pyc',
   'E:/Program '
   'Files/Python/Python37/Lib/xml/sax\\__pycache__\\saxutils.cpython-37.opt-2.pyc',
   'DATA'),
  ('xml\\sax\\__pycache__\\saxutils.cpython-37.pyc',
   'E:/Program '
   'Files/Python/Python37/Lib/xml/sax\\__pycache__\\saxutils.cpython-37.pyc',
   'DATA'),
  ('xml\\sax\\__pycache__\\xmlreader.cpython-37.opt-1.pyc',
   'E:/Program '
   'Files/Python/Python37/Lib/xml/sax\\__pycache__\\xmlreader.cpython-37.opt-1.pyc',
   'DATA'),
  ('xml\\sax\\__pycache__\\xmlreader.cpython-37.opt-2.pyc',
   'E:/Program '
   'Files/Python/Python37/Lib/xml/sax\\__pycache__\\xmlreader.cpython-37.opt-2.pyc',
   'DATA'),
  ('xml\\sax\\__pycache__\\xmlreader.cpython-37.pyc',
   'E:/Program '
   'Files/Python/Python37/Lib/xml/sax\\__pycache__\\xmlreader.cpython-37.pyc',
   'DATA'),
  ('xml\\sax\\__pycache__\\_exceptions.cpython-37.opt-1.pyc',
   'E:/Program '
   'Files/Python/Python37/Lib/xml/sax\\__pycache__\\_exceptions.cpython-37.opt-1.pyc',
   'DATA'),
  ('xml\\sax\\__pycache__\\_exceptions.cpython-37.opt-2.pyc',
   'E:/Program '
   'Files/Python/Python37/Lib/xml/sax\\__pycache__\\_exceptions.cpython-37.opt-2.pyc',
   'DATA'),
  ('xml\\sax\\__pycache__\\_exceptions.cpython-37.pyc',
   'E:/Program '
   'Files/Python/Python37/Lib/xml/sax\\__pycache__\\_exceptions.cpython-37.pyc',
   'DATA'),
  ('xml\\sax\\__pycache__\\__init__.cpython-37.opt-1.pyc',
   'E:/Program '
   'Files/Python/Python37/Lib/xml/sax\\__pycache__\\__init__.cpython-37.opt-1.pyc',
   'DATA'),
  ('xml\\sax\\__pycache__\\__init__.cpython-37.opt-2.pyc',
   'E:/Program '
   'Files/Python/Python37/Lib/xml/sax\\__pycache__\\__init__.cpython-37.opt-2.pyc',
   'DATA'),
  ('xml\\sax\\__pycache__\\__init__.cpython-37.pyc',
   'E:/Program '
   'Files/Python/Python37/Lib/xml/sax\\__pycache__\\__init__.cpython-37.pyc',
   'DATA'),
  ('xml\\parsers\\expat.py',
   'E:/Program Files/Python/Python37/Lib/xml/parsers\\expat.py',
   'DATA'),
  ('xml\\parsers\\expat.pyo',
   'E:/Program Files/Python/Python37/Lib/xml/parsers\\expat.pyo',
   'DATA'),
  ('xml\\parsers\\__init__.py',
   'E:/Program Files/Python/Python37/Lib/xml/parsers\\__init__.py',
   'DATA'),
  ('xml\\parsers\\__init__.pyo',
   'E:/Program Files/Python/Python37/Lib/xml/parsers\\__init__.pyo',
   'DATA'),
  ('xml\\parsers\\__pycache__\\expat.cpython-37.opt-1.pyc',
   'E:/Program '
   'Files/Python/Python37/Lib/xml/parsers\\__pycache__\\expat.cpython-37.opt-1.pyc',
   'DATA'),
  ('xml\\parsers\\__pycache__\\expat.cpython-37.opt-2.pyc',
   'E:/Program '
   'Files/Python/Python37/Lib/xml/parsers\\__pycache__\\expat.cpython-37.opt-2.pyc',
   'DATA'),
  ('xml\\parsers\\__pycache__\\expat.cpython-37.pyc',
   'E:/Program '
   'Files/Python/Python37/Lib/xml/parsers\\__pycache__\\expat.cpython-37.pyc',
   'DATA'),
  ('xml\\parsers\\__pycache__\\__init__.cpython-37.opt-1.pyc',
   'E:/Program '
   'Files/Python/Python37/Lib/xml/parsers\\__pycache__\\__init__.cpython-37.opt-1.pyc',
   'DATA'),
  ('xml\\parsers\\__pycache__\\__init__.cpython-37.opt-2.pyc',
   'E:/Program '
   'Files/Python/Python37/Lib/xml/parsers\\__pycache__\\__init__.cpython-37.opt-2.pyc',
   'DATA'),
  ('xml\\parsers\\__pycache__\\__init__.cpython-37.pyc',
   'E:/Program '
   'Files/Python/Python37/Lib/xml/parsers\\__pycache__\\__init__.cpython-37.pyc',
   'DATA'),
  ('xml\\etree\\cElementTree.py',
   'E:/Program Files/Python/Python37/Lib/xml/etree\\cElementTree.py',
   'DATA'),
  ('xml\\etree\\cElementTree.pyo',
   'E:/Program Files/Python/Python37/Lib/xml/etree\\cElementTree.pyo',
   'DATA'),
  ('xml\\etree\\ElementInclude.py',
   'E:/Program Files/Python/Python37/Lib/xml/etree\\ElementInclude.py',
   'DATA'),
  ('xml\\etree\\ElementInclude.pyo',
   'E:/Program Files/Python/Python37/Lib/xml/etree\\ElementInclude.pyo',
   'DATA'),
  ('xml\\etree\\ElementPath.py',
   'E:/Program Files/Python/Python37/Lib/xml/etree\\ElementPath.py',
   'DATA'),
  ('xml\\etree\\ElementPath.pyo',
   'E:/Program Files/Python/Python37/Lib/xml/etree\\ElementPath.pyo',
   'DATA'),
  ('xml\\etree\\ElementTree.py',
   'E:/Program Files/Python/Python37/Lib/xml/etree\\ElementTree.py',
   'DATA'),
  ('xml\\etree\\ElementTree.pyo',
   'E:/Program Files/Python/Python37/Lib/xml/etree\\ElementTree.pyo',
   'DATA'),
  ('xml\\etree\\__init__.py',
   'E:/Program Files/Python/Python37/Lib/xml/etree\\__init__.py',
   'DATA'),
  ('xml\\etree\\__init__.pyo',
   'E:/Program Files/Python/Python37/Lib/xml/etree\\__init__.pyo',
   'DATA'),
  ('xml\\etree\\__pycache__\\cElementTree.cpython-37.opt-1.pyc',
   'E:/Program '
   'Files/Python/Python37/Lib/xml/etree\\__pycache__\\cElementTree.cpython-37.opt-1.pyc',
   'DATA'),
  ('xml\\etree\\__pycache__\\cElementTree.cpython-37.opt-2.pyc',
   'E:/Program '
   'Files/Python/Python37/Lib/xml/etree\\__pycache__\\cElementTree.cpython-37.opt-2.pyc',
   'DATA'),
  ('xml\\etree\\__pycache__\\cElementTree.cpython-37.pyc',
   'E:/Program '
   'Files/Python/Python37/Lib/xml/etree\\__pycache__\\cElementTree.cpython-37.pyc',
   'DATA'),
  ('xml\\etree\\__pycache__\\ElementInclude.cpython-37.opt-1.pyc',
   'E:/Program '
   'Files/Python/Python37/Lib/xml/etree\\__pycache__\\ElementInclude.cpython-37.opt-1.pyc',
   'DATA'),
  ('xml\\etree\\__pycache__\\ElementInclude.cpython-37.opt-2.pyc',
   'E:/Program '
   'Files/Python/Python37/Lib/xml/etree\\__pycache__\\ElementInclude.cpython-37.opt-2.pyc',
   'DATA'),
  ('xml\\etree\\__pycache__\\ElementInclude.cpython-37.pyc',
   'E:/Program '
   'Files/Python/Python37/Lib/xml/etree\\__pycache__\\ElementInclude.cpython-37.pyc',
   'DATA'),
  ('xml\\etree\\__pycache__\\ElementPath.cpython-37.opt-1.pyc',
   'E:/Program '
   'Files/Python/Python37/Lib/xml/etree\\__pycache__\\ElementPath.cpython-37.opt-1.pyc',
   'DATA'),
  ('xml\\etree\\__pycache__\\ElementPath.cpython-37.opt-2.pyc',
   'E:/Program '
   'Files/Python/Python37/Lib/xml/etree\\__pycache__\\ElementPath.cpython-37.opt-2.pyc',
   'DATA'),
  ('xml\\etree\\__pycache__\\ElementPath.cpython-37.pyc',
   'E:/Program '
   'Files/Python/Python37/Lib/xml/etree\\__pycache__\\ElementPath.cpython-37.pyc',
   'DATA'),
  ('xml\\etree\\__pycache__\\ElementTree.cpython-37.opt-1.pyc',
   'E:/Program '
   'Files/Python/Python37/Lib/xml/etree\\__pycache__\\ElementTree.cpython-37.opt-1.pyc',
   'DATA'),
  ('xml\\etree\\__pycache__\\ElementTree.cpython-37.opt-2.pyc',
   'E:/Program '
   'Files/Python/Python37/Lib/xml/etree\\__pycache__\\ElementTree.cpython-37.opt-2.pyc',
   'DATA'),
  ('xml\\etree\\__pycache__\\ElementTree.cpython-37.pyc',
   'E:/Program '
   'Files/Python/Python37/Lib/xml/etree\\__pycache__\\ElementTree.cpython-37.pyc',
   'DATA'),
  ('xml\\etree\\__pycache__\\__init__.cpython-37.opt-1.pyc',
   'E:/Program '
   'Files/Python/Python37/Lib/xml/etree\\__pycache__\\__init__.cpython-37.opt-1.pyc',
   'DATA'),
  ('xml\\etree\\__pycache__\\__init__.cpython-37.opt-2.pyc',
   'E:/Program '
   'Files/Python/Python37/Lib/xml/etree\\__pycache__\\__init__.cpython-37.opt-2.pyc',
   'DATA'),
  ('xml\\etree\\__pycache__\\__init__.cpython-37.pyc',
   'E:/Program '
   'Files/Python/Python37/Lib/xml/etree\\__pycache__\\__init__.cpython-37.pyc',
   'DATA'),
  ('xml\\dom\\domreg.py',
   'E:/Program Files/Python/Python37/Lib/xml/dom\\domreg.py',
   'DATA'),
  ('xml\\dom\\expatbuilder.py',
   'E:/Program Files/Python/Python37/Lib/xml/dom\\expatbuilder.py',
   'DATA'),
  ('xml\\dom\\minicompat.py',
   'E:/Program Files/Python/Python37/Lib/xml/dom\\minicompat.py',
   'DATA'),
  ('xml\\dom\\minidom.py',
   'E:/Program Files/Python/Python37/Lib/xml/dom\\minidom.py',
   'DATA'),
  ('xml\\dom\\NodeFilter.py',
   'E:/Program Files/Python/Python37/Lib/xml/dom\\NodeFilter.py',
   'DATA'),
  ('xml\\dom\\pulldom.py',
   'E:/Program Files/Python/Python37/Lib/xml/dom\\pulldom.py',
   'DATA'),
  ('xml\\dom\\xmlbuilder.py',
   'E:/Program Files/Python/Python37/Lib/xml/dom\\xmlbuilder.py',
   'DATA'),
  ('xml\\dom\\__init__.py',
   'E:/Program Files/Python/Python37/Lib/xml/dom\\__init__.py',
   'DATA'),
  ('xml\\dom\\__pycache__\\domreg.cpython-37.opt-1.pyc',
   'E:/Program '
   'Files/Python/Python37/Lib/xml/dom\\__pycache__\\domreg.cpython-37.opt-1.pyc',
   'DATA'),
  ('xml\\dom\\__pycache__\\domreg.cpython-37.opt-2.pyc',
   'E:/Program '
   'Files/Python/Python37/Lib/xml/dom\\__pycache__\\domreg.cpython-37.opt-2.pyc',
   'DATA'),
  ('xml\\dom\\__pycache__\\domreg.cpython-37.pyc',
   'E:/Program '
   'Files/Python/Python37/Lib/xml/dom\\__pycache__\\domreg.cpython-37.pyc',
   'DATA'),
  ('xml\\dom\\__pycache__\\expatbuilder.cpython-37.opt-1.pyc',
   'E:/Program '
   'Files/Python/Python37/Lib/xml/dom\\__pycache__\\expatbuilder.cpython-37.opt-1.pyc',
   'DATA'),
  ('xml\\dom\\__pycache__\\expatbuilder.cpython-37.opt-2.pyc',
   'E:/Program '
   'Files/Python/Python37/Lib/xml/dom\\__pycache__\\expatbuilder.cpython-37.opt-2.pyc',
   'DATA'),
  ('xml\\dom\\__pycache__\\expatbuilder.cpython-37.pyc',
   'E:/Program '
   'Files/Python/Python37/Lib/xml/dom\\__pycache__\\expatbuilder.cpython-37.pyc',
   'DATA'),
  ('xml\\dom\\__pycache__\\minicompat.cpython-37.opt-1.pyc',
   'E:/Program '
   'Files/Python/Python37/Lib/xml/dom\\__pycache__\\minicompat.cpython-37.opt-1.pyc',
   'DATA'),
  ('xml\\dom\\__pycache__\\minicompat.cpython-37.opt-2.pyc',
   'E:/Program '
   'Files/Python/Python37/Lib/xml/dom\\__pycache__\\minicompat.cpython-37.opt-2.pyc',
   'DATA'),
  ('xml\\dom\\__pycache__\\minicompat.cpython-37.pyc',
   'E:/Program '
   'Files/Python/Python37/Lib/xml/dom\\__pycache__\\minicompat.cpython-37.pyc',
   'DATA'),
  ('xml\\dom\\__pycache__\\minidom.cpython-37.opt-1.pyc',
   'E:/Program '
   'Files/Python/Python37/Lib/xml/dom\\__pycache__\\minidom.cpython-37.opt-1.pyc',
   'DATA'),
  ('xml\\dom\\__pycache__\\minidom.cpython-37.opt-2.pyc',
   'E:/Program '
   'Files/Python/Python37/Lib/xml/dom\\__pycache__\\minidom.cpython-37.opt-2.pyc',
   'DATA'),
  ('xml\\dom\\__pycache__\\minidom.cpython-37.pyc',
   'E:/Program '
   'Files/Python/Python37/Lib/xml/dom\\__pycache__\\minidom.cpython-37.pyc',
   'DATA'),
  ('xml\\dom\\__pycache__\\NodeFilter.cpython-37.opt-1.pyc',
   'E:/Program '
   'Files/Python/Python37/Lib/xml/dom\\__pycache__\\NodeFilter.cpython-37.opt-1.pyc',
   'DATA'),
  ('xml\\dom\\__pycache__\\NodeFilter.cpython-37.opt-2.pyc',
   'E:/Program '
   'Files/Python/Python37/Lib/xml/dom\\__pycache__\\NodeFilter.cpython-37.opt-2.pyc',
   'DATA'),
  ('xml\\dom\\__pycache__\\NodeFilter.cpython-37.pyc',
   'E:/Program '
   'Files/Python/Python37/Lib/xml/dom\\__pycache__\\NodeFilter.cpython-37.pyc',
   'DATA'),
  ('xml\\dom\\__pycache__\\pulldom.cpython-37.opt-1.pyc',
   'E:/Program '
   'Files/Python/Python37/Lib/xml/dom\\__pycache__\\pulldom.cpython-37.opt-1.pyc',
   'DATA'),
  ('xml\\dom\\__pycache__\\pulldom.cpython-37.opt-2.pyc',
   'E:/Program '
   'Files/Python/Python37/Lib/xml/dom\\__pycache__\\pulldom.cpython-37.opt-2.pyc',
   'DATA'),
  ('xml\\dom\\__pycache__\\pulldom.cpython-37.pyc',
   'E:/Program '
   'Files/Python/Python37/Lib/xml/dom\\__pycache__\\pulldom.cpython-37.pyc',
   'DATA'),
  ('xml\\dom\\__pycache__\\xmlbuilder.cpython-37.opt-1.pyc',
   'E:/Program '
   'Files/Python/Python37/Lib/xml/dom\\__pycache__\\xmlbuilder.cpython-37.opt-1.pyc',
   'DATA'),
  ('xml\\dom\\__pycache__\\xmlbuilder.cpython-37.opt-2.pyc',
   'E:/Program '
   'Files/Python/Python37/Lib/xml/dom\\__pycache__\\xmlbuilder.cpython-37.opt-2.pyc',
   'DATA'),
  ('xml\\dom\\__pycache__\\xmlbuilder.cpython-37.pyc',
   'E:/Program '
   'Files/Python/Python37/Lib/xml/dom\\__pycache__\\xmlbuilder.cpython-37.pyc',
   'DATA'),
  ('xml\\dom\\__pycache__\\__init__.cpython-37.opt-1.pyc',
   'E:/Program '
   'Files/Python/Python37/Lib/xml/dom\\__pycache__\\__init__.cpython-37.opt-1.pyc',
   'DATA'),
  ('xml\\dom\\__pycache__\\__init__.cpython-37.opt-2.pyc',
   'E:/Program '
   'Files/Python/Python37/Lib/xml/dom\\__pycache__\\__init__.cpython-37.opt-2.pyc',
   'DATA'),
  ('xml\\dom\\__pycache__\\__init__.cpython-37.pyc',
   'E:/Program '
   'Files/Python/Python37/Lib/xml/dom\\__pycache__\\__init__.cpython-37.pyc',
   'DATA')])
